{"queryTime":"0 Seconds","totalCount":2070,"pageNumber":1,"perPage":200,"pageCount":200,"data":[{"id":55447,"name":"Halloween","duration":15},{"id":818511,"name":"Horror Movie Sound","duration":3},{"id":149170,"name":"Airtelhorror","duration":28},{"id":824166,"name":"Iphone Horrors Ring","duration":11},{"id":1211462,"name":"Monster Speaks","duration":11},{"id":1117827,"name":"Na na creapy","duration":12},{"id":1172806,"name":"Descending","duration":7},{"id":367624,"name":"Airtel Horror","duration":28},{"id":1356955,"name":"Holloween Horror","duration":18},{"id":386032,"name":"Very Horror","duration":17},{"id":922032,"name":"Horror","duration":4},{"id":168379,"name":"Scary","duration":6},{"id":257719,"name":"Ghostly Yes Master","duration":3},{"id":1136165,"name":"Psycho","duration":29},{"id":1184083,"name":"Eddys Teddy","duration":8},{"id":1335302,"name":"Evil Jaguar","duration":29},{"id":1358939,"name":"Evil Laugh","duration":29},{"id":313760,"name":"Nokia Horror","duration":7},{"id":850676,"name":"Horror Mix Dj","duration":26},{"id":346168,"name":"Horror Scream","duration":15},{"id":1024864,"name":"Cold Fear","duration":29},{"id":848534,"name":"Scariest Tone Ever","duration":29},{"id":1292211,"name":"Horror","duration":15},{"id":1326802,"name":"Funtone Horror","duration":7},{"id":325227,"name":"Hi  Hi  Hiiiiiiiiiii","duration":3},{"id":1138117,"name":"Predator","duration":12},{"id":355393,"name":"Gruesome Discovery","duration":29},{"id":895986,"name":"Amputation","duration":5},{"id":821795,"name":"Eerie Wind","duration":29},{"id":829444,"name":"Cheak","duration":8},{"id":1157953,"name":"DotFlow Kaibutsu","duration":1},{"id":1266632,"name":"Horror Sms 2","duration":7},{"id":975161,"name":"Shadow Man","duration":7},{"id":1032674,"name":"Horror","duration":26},{"id":1121996,"name":"Samara The Ring","duration":25},{"id":1323576,"name":"Kayko Crokeing","duration":11},{"id":1096669,"name":"Silent Hill 2 doors","duration":2},{"id":1256337,"name":"Ghost","duration":27},{"id":804428,"name":"Sharp Sms 2010","duration":5},{"id":1226864,"name":"Devil Scary","duration":6},{"id":1172666,"name":"Ethereal Wind","duration":8},{"id":262360,"name":"Horror","duration":27},{"id":314274,"name":"Best Sms","duration":9},{"id":775396,"name":"Horror Bird","duration":9},{"id":212114,"name":"Horror Sound","duration":29},{"id":906920,"name":"Bad Behaviour","duration":22},{"id":1038089,"name":"Sad Bell Ringtone","duration":29},{"id":792328,"name":"Scary Bird Sms","duration":4},{"id":13625,"name":"witch","duration":10},{"id":1136078,"name":"Halloween 6 Theme","duration":29},{"id":801313,"name":"Demon Cry","duration":5},{"id":1083787,"name":"One Missed Call","duration":27},{"id":1287317,"name":"Kaal Jungle Theme","duration":23},{"id":1150230,"name":"FEAR 4 - Initiation","duration":27},{"id":978149,"name":"Resident Evil 6","duration":29},{"id":1309187,"name":"Horror Screem","duration":4},{"id":1092787,"name":"Found You","duration":5},{"id":900611,"name":"Dil Se Di Dua","duration":8},{"id":1340111,"name":"Scary Laugh","duration":9},{"id":299551,"name":"Freddy Krueger","duration":22},{"id":1349072,"name":"Cloverfield Monster","duration":4},{"id":886362,"name":"Horror","duration":5},{"id":1319696,"name":"Thriller","duration":8},{"id":135558,"name":"Horror Night","duration":23},{"id":855800,"name":"Cool Horror Tone","duration":21},{"id":811604,"name":"Sightstoshowyou Loud","duration":3},{"id":332615,"name":"1 Missed Call","duration":13},{"id":142328,"name":"Koe","duration":24},{"id":379971,"name":"One Missed Call","duration":27},{"id":1283439,"name":"Horror","duration":19},{"id":876816,"name":"Airtel Bhoot Fm","duration":13},{"id":1250864,"name":"Beware Tone","duration":29},{"id":1192214,"name":"Life Or Death","duration":29},{"id":1093389,"name":"Thats Spoooooky","duration":29},{"id":1158012,"name":"Yume Nikki End Theme","duration":19},{"id":1024678,"name":"halloween techno mix","duration":29},{"id":1239013,"name":"One Missed Call","duration":12},{"id":1260508,"name":"Horror Sms","duration":8},{"id":354475,"name":"One Missed Call En","duration":25},{"id":1206054,"name":"Evil Goblin Laugh","duration":18},{"id":824320,"name":"Dont Be Afraid","duration":27},{"id":850675,"name":"Horror Calling","duration":28},{"id":1189683,"name":"Horror With Fun","duration":26},{"id":855463,"name":"Horrormusic","duration":4},{"id":960105,"name":"Strange Alarm Clock","duration":11},{"id":1320550,"name":"Horror Song","duration":21},{"id":1047509,"name":"ahs freakshow best","duration":12},{"id":834854,"name":"Horror Music","duration":4},{"id":849588,"name":"Nokia Horror Rngtone","duration":7},{"id":80375,"name":"airtel horror","duration":28},{"id":1084245,"name":"dead silence","duration":22},{"id":202826,"name":"Horror Wolf Howl","duration":25},{"id":845186,"name":"Horror Theme","duration":28},{"id":317968,"name":"Horror Scream","duration":2},{"id":1317816,"name":"Ghost","duration":5},{"id":98318,"name":"28 days-weeks later","duration":30},{"id":347184,"name":"Evil Laugh","duration":13},{"id":989307,"name":"Death Note","duration":29},{"id":142431,"name":"Saw 3d 2011","duration":16},{"id":44401,"name":"Horror Scream !","duration":10},{"id":1200652,"name":"Zee Horror Show","duration":29},{"id":794223,"name":"Witch Msg Tone","duration":23},{"id":188255,"name":"Horror In Band","duration":20},{"id":807298,"name":"Evill Laugh","duration":6},{"id":1354840,"name":"Horror Door","duration":1},{"id":1157940,"name":"DotFlow Bgm 30","duration":8},{"id":362451,"name":"T2psssst","duration":29},{"id":1034475,"name":"Horror Dubstep","duration":29},{"id":1093983,"name":"Halloween Reworked","duration":29},{"id":829386,"name":"Scary","duration":10},{"id":118600,"name":"Horror 2011","duration":12},{"id":1272160,"name":"7 Days","duration":11},{"id":1256268,"name":"Full Bass Horror","duration":29},{"id":341266,"name":"Horror Tune","duration":29},{"id":377767,"name":"Onemissedcall","duration":29},{"id":815333,"name":"Horror Nokia Sms","duration":7},{"id":1085589,"name":"intro part 2","duration":24},{"id":1297440,"name":"Horror","duration":21},{"id":1161288,"name":"HALLOWEEN Theme","duration":30},{"id":364268,"name":"Night Horror Sms","duration":11},{"id":1172491,"name":"Loud Sound","duration":15},{"id":1309386,"name":"Horror Alert","duration":10},{"id":169724,"name":"The Grudge Attack","duration":16},{"id":112629,"name":"Ghost","duration":27},{"id":1293828,"name":"Monster Attack","duration":4},{"id":892277,"name":"Horror Guitar","duration":11},{"id":315406,"name":"Scary","duration":7},{"id":974326,"name":"Haru No Katami","duration":21},{"id":1255558,"name":"Scary Laughter","duration":6},{"id":203991,"name":"Horror Wind Msg Ksx","duration":6},{"id":328849,"name":"Horror","duration":14},{"id":75687,"name":"Bring Me To Life - RC Week 202","duration":29},{"id":1294938,"name":"Electra Horror23","duration":9},{"id":906904,"name":"Pure Suite","duration":17},{"id":982298,"name":"Halloween","duration":29},{"id":1096227,"name":"Evil Laugh 2 AMG","duration":5},{"id":1168228,"name":"AHS Cult","duration":24},{"id":873944,"name":"2012 Horror","duration":28},{"id":1002293,"name":"Horror 2","duration":29},{"id":1351468,"name":"Horror Funny Sms","duration":5},{"id":808529,"name":"Scary Tone","duration":11},{"id":990341,"name":"Halloween","duration":28},{"id":1356719,"name":"Horror Laugh 2010","duration":28},{"id":818418,"name":"Evil Sms Cropped","duration":5},{"id":1362483,"name":"Horror Missed Call","duration":29},{"id":1363426,"name":"Ghost","duration":20},{"id":96407,"name":"Dark Carnival","duration":28},{"id":328305,"name":"Scream","duration":29},{"id":1142466,"name":"HorrorTheme","duration":29},{"id":1333155,"name":"Horror 2010","duration":28},{"id":134826,"name":"Nokia Horror Style","duration":7},{"id":1033844,"name":"HORROR SOUND EFFECT","duration":29},{"id":110192,"name":"Help Me Ghost Voice","duration":4},{"id":1357415,"name":"2010 Scary Sms","duration":8},{"id":310907,"name":"Horror Tone Funny","duration":8},{"id":803792,"name":"Horror Mix No1","duration":12},{"id":783119,"name":"Suspense Sms","duration":6},{"id":20705,"name":"SCARY INTRO","duration":29},{"id":139834,"name":"Zombie Groan","duration":3},{"id":1350243,"name":"Freddie Kills","duration":26},{"id":1220715,"name":"Psycho","duration":28},{"id":219084,"name":"Haunted Phone","duration":21},{"id":1270780,"name":"Scary Tone","duration":7},{"id":120486,"name":"Realhorror","duration":28},{"id":373990,"name":"Almas Music Box","duration":29},{"id":1093444,"name":"Scary Scream","duration":14},{"id":1216137,"name":"One Missed Call","duration":6},{"id":803316,"name":"Horror Voice","duration":29},{"id":1047565,"name":"5 Nights At Freddys","duration":28},{"id":835742,"name":"Souldracula","duration":25},{"id":954595,"name":"Dead Silence","duration":24},{"id":1307250,"name":"Aahat 2 Theme","duration":19},{"id":354213,"name":"Horror Ghost","duration":12},{"id":105154,"name":"A Tale Of Two Sister","duration":29},{"id":994574,"name":"Danger Tone","duration":22},{"id":1283566,"name":"Electric Horror Sms","duration":6},{"id":1319981,"name":"Scary Ringtone","duration":29},{"id":977386,"name":"Run Takbo Run","duration":15},{"id":888302,"name":"Exorcist","duration":17},{"id":1318396,"name":"Horror","duration":29},{"id":1211815,"name":"Scotching Desert","duration":22},{"id":945715,"name":"One Missed Call2","duration":29},{"id":43122,"name":"Nokia Horror Msg","duration":7},{"id":331376,"name":"Horror","duration":12},{"id":1102199,"name":"Lightning","duration":6},{"id":798892,"name":"Hoooo","duration":5},{"id":865201,"name":"Horror","duration":29},{"id":384872,"name":"Airtel Horror Mix 32","duration":27},{"id":817704,"name":"Oh I Love Message","duration":1},{"id":1038819,"name":"Horror whatsapp","duration":2},{"id":338487,"name":"Tum Ho Mera Pyar2011","duration":27},{"id":187189,"name":"Horror Scream","duration":15},{"id":243840,"name":"Monster","duration":7},{"id":241770,"name":"Psycho","duration":29},{"id":786443,"name":"Funny Horror Tone","duration":12},{"id":1326803,"name":"Horror  Evil","duration":7},{"id":56825,"name":"Horror_Witch_Sms","duration":10},{"id":916664,"name":"Amityville","duration":21},{"id":779783,"name":"Monster Kill","duration":2},{"id":1219239,"name":"Psycho The Movie","duration":11}]}