{"queryTime":"0 Seconds","totalCount":"1973","pageNumber":4,"perPage":200,"pageCount":200,"data":[{"id":267687,"name":"Rooster","duration":4},{"id":919117,"name":"Chocowark","duration":1},{"id":838975,"name":"Pleasant Bird Tone","duration":27},{"id":8376,"name":"Bird msg","duration":1},{"id":243216,"name":"Sweet Paradise Tone","duration":11},{"id":804286,"name":"Airtel Rmx","duration":19},{"id":1105615,"name":"Bird and Clock","duration":29},{"id":963601,"name":"Angery Birds Kick","duration":19},{"id":1279098,"name":"Bird Airtel","duration":19},{"id":1162037,"name":"Tui","duration":6},{"id":385689,"name":"3d Bird Singing","duration":24},{"id":859684,"name":"Angry Bird Flying","duration":1},{"id":132960,"name":"Angry Bird-6","duration":12},{"id":252209,"name":"Disco Bird","duration":15},{"id":208148,"name":"Bird Singing","duration":3},{"id":309823,"name":"Angry Bird","duration":1},{"id":198551,"name":"Rypekakkel 2","duration":8},{"id":103578,"name":"Airtel Bird Tone","duration":21},{"id":279173,"name":"3d Eagle","duration":29},{"id":775131,"name":"Twitter","duration":14},{"id":778482,"name":"Bird Sms","duration":5},{"id":1176418,"name":"Cuckoo","duration":29},{"id":1051305,"name":"Metal Woodcock","duration":18},{"id":213703,"name":"Cool-flute","duration":27},{"id":1127239,"name":"Android7 Bird Song","duration":1},{"id":186625,"name":"Bird Flu Psycho","duration":13},{"id":1172352,"name":"Chicken Ea Ea Oom","duration":19},{"id":1316177,"name":"Bird","duration":20},{"id":133935,"name":"Som Sum","duration":28},{"id":1238078,"name":"Airtel Bird","duration":21},{"id":200216,"name":"Burchells Coucal Sms","duration":1},{"id":914561,"name":"Angry Bird Space New","duration":24},{"id":370714,"name":"Free As A Bird","duration":29},{"id":792579,"name":"Bird Sms","duration":2},{"id":778678,"name":"Bird Sms","duration":5},{"id":353007,"name":"Airtel Bird","duration":13},{"id":267581,"name":"Tweet","duration":1},{"id":1287549,"name":"Bird Wistel Msg","duration":5},{"id":923335,"name":"3d Bird Sms","duration":8},{"id":783153,"name":"Nature Bird","duration":1},{"id":832396,"name":"3d Bird Singing","duration":24},{"id":915541,"name":"Blackberry Bird","duration":1},{"id":790997,"name":"Good Morning","duration":29},{"id":1303478,"name":"Gull","duration":11},{"id":1151333,"name":"Springtime Birds","duration":17},{"id":1352431,"name":"Bird Call","duration":12},{"id":780136,"name":"Sweet Bird","duration":1},{"id":63889,"name":"Airtel Bird Mix","duration":19},{"id":805242,"name":"3d Bird Sms","duration":9},{"id":1350723,"name":"Flute Bird","duration":29},{"id":1318629,"name":"Tweeter Tone","duration":4},{"id":313503,"name":"Birdy Msg","duration":6},{"id":312273,"name":"Roadrunner Bird","duration":1},{"id":1180534,"name":"Bird","duration":2},{"id":1035314,"name":"Clock Bird","duration":8},{"id":953804,"name":"Airtel Bird","duration":21},{"id":830718,"name":"Bird Remix","duration":28},{"id":310584,"name":"Romantic Garden","duration":24},{"id":297318,"name":"Bird","duration":1},{"id":96597,"name":"airtel","duration":11},{"id":1259002,"name":"Bird","duration":28},{"id":254396,"name":"Cuckoo Alarm","duration":6},{"id":1277382,"name":"Relief Tension","duration":29},{"id":337490,"name":"Angry Bird","duration":4},{"id":1289053,"name":"Tweeting Bird","duration":2},{"id":995093,"name":"Angry Bird Sms","duration":1},{"id":377069,"name":"Scary Sound","duration":24},{"id":795606,"name":"Bird Sound Mix","duration":20},{"id":1360988,"name":"3d Bird New V","duration":9},{"id":248661,"name":"Bird Sound Awesome","duration":15},{"id":1029197,"name":"SFII - Spinning Bird","duration":2},{"id":820051,"name":"Nightangle Bird","duration":28},{"id":834940,"name":"Bird-1","duration":9},{"id":983156,"name":"Note 2 - Sea Breeze","duration":29},{"id":1341719,"name":"Bird Sms New Latest","duration":5},{"id":72175,"name":"3d bird","duration":4},{"id":1190400,"name":"Bird","duration":15},{"id":211793,"name":"Bird Loop Funny","duration":5},{"id":367865,"name":"Birds","duration":4},{"id":158839,"name":"Angry Bird Theme","duration":20},{"id":1098003,"name":"Doctor Who - Bird","duration":25},{"id":821452,"name":"Bird Song","duration":3},{"id":1176212,"name":"Bird Sound","duration":15},{"id":779671,"name":"Fun Bird","duration":20},{"id":378781,"name":"Bird","duration":29},{"id":853008,"name":"Bird -05","duration":14},{"id":1190640,"name":"Helprado","duration":4},{"id":857421,"name":"Angry Bird","duration":28},{"id":811394,"name":"Bird Sound","duration":27},{"id":1205032,"name":"Bird","duration":9},{"id":861264,"name":"Angry Bird 1","duration":1},{"id":874221,"name":"Bird - Glados","duration":2},{"id":1292903,"name":"Short Bird Sound","duration":3},{"id":1137286,"name":"New Favorite Holiday","duration":4},{"id":956358,"name":"Twitter Real","duration":1},{"id":782160,"name":"Birds Sound","duration":6},{"id":917532,"name":"Bird Sound","duration":3},{"id":835123,"name":"Bird 6","duration":10},{"id":310587,"name":"Redbirdyell03","duration":1},{"id":992461,"name":"3d Bird Tone","duration":28},{"id":45238,"name":"Bird_Sound","duration":15},{"id":1172374,"name":"Bird Sing","duration":9},{"id":112833,"name":"Airtel Bird","duration":19},{"id":832318,"name":"Airtel Bird Mix","duration":19},{"id":213295,"name":"Bird Sing","duration":11},{"id":781306,"name":"Airtel Bird","duration":19},{"id":1176423,"name":"Bird","duration":9},{"id":76370,"name":"airtel","duration":6},{"id":997908,"name":"Angry Bird Target","duration":9},{"id":207700,"name":"Angry Bird","duration":9},{"id":266030,"name":"Tweet Tweet Sms","duration":3},{"id":934339,"name":"Pyo Pyo","duration":2},{"id":864841,"name":"Angry Bird Target","duration":9},{"id":158270,"name":"Disco Bird","duration":15},{"id":252320,"name":"Bird Beat Cool","duration":20},{"id":163171,"name":"Cute Birdy","duration":29},{"id":882369,"name":"Flightless Bird","duration":17},{"id":887395,"name":"Kingfisher","duration":15},{"id":211291,"name":"Angry Bird Sms 2011","duration":1},{"id":917529,"name":"Bird Is Da Word","duration":22},{"id":1258019,"name":"Nice Guitar Byrehman","duration":26},{"id":788256,"name":"Bird Sounds","duration":28},{"id":1358325,"name":"Bird Song","duration":8},{"id":1319759,"name":"--singing Bird--","duration":28},{"id":1198063,"name":"Cute Bird Sound","duration":24},{"id":1328142,"name":"Bird Vs Ring","duration":16},{"id":918761,"name":"Airtel Bird 2012","duration":19},{"id":795158,"name":"Airtel Bird Mix","duration":21},{"id":368256,"name":"Bird","duration":29},{"id":74934,"name":"Bird Koyal","duration":29},{"id":14620,"name":"Bird With Rain","duration":13},{"id":204757,"name":"Idiot Birds","duration":1},{"id":176928,"name":"Airtel Bird","duration":19},{"id":834948,"name":"Bird Playing","duration":23},{"id":1241967,"name":"Digital-bird","duration":28},{"id":1146267,"name":"Early Bird","duration":5},{"id":940083,"name":"Bird Humming","duration":7},{"id":799062,"name":"Bird Love Rain","duration":13},{"id":919720,"name":"Game Complete","duration":12},{"id":976432,"name":"Chief Of Chicken","duration":14},{"id":863786,"name":"Eagle","duration":4},{"id":998435,"name":"Mentos Birds","duration":19},{"id":918140,"name":"Angry Bird","duration":1},{"id":1001539,"name":"Bird","duration":3},{"id":302329,"name":"Bird Ringtone","duration":13},{"id":1355966,"name":"Weird Bird Sound 4","duration":1},{"id":1320436,"name":"Crazy Bird","duration":14},{"id":206028,"name":"Mixs Birds Tone","duration":28},{"id":1223085,"name":"Cuckoo","duration":3},{"id":796897,"name":"Bird Sing","duration":3},{"id":202143,"name":"Angry Birds Nigel","duration":13},{"id":942951,"name":"Airtel Bird","duration":19},{"id":1191742,"name":"Airtel Bird Remix","duration":18},{"id":884991,"name":"New Kit Kat","duration":22},{"id":182289,"name":"Koyal Bird","duration":8},{"id":874434,"name":"Twit Twoo","duration":4},{"id":895697,"name":"Blackberry Bird","duration":7},{"id":1023718,"name":"alec bird song 1","duration":1},{"id":1316448,"name":"Airtel Bird","duration":19},{"id":1269313,"name":"Sweet Bird Music","duration":25},{"id":127685,"name":"Royal Bird","duration":20},{"id":356344,"name":"Airtel Bird","duration":19},{"id":1197730,"name":"Airtel Bird New","duration":21},{"id":835171,"name":"Bird 10","duration":5},{"id":331139,"name":"In The Forest","duration":7},{"id":217691,"name":"Wake Up Alarm","duration":21},{"id":810162,"name":"Bird Thunder Storm","duration":22},{"id":1180838,"name":"Birdsound","duration":4},{"id":1288509,"name":"Bird","duration":3},{"id":978694,"name":"Pekin Robin Bird","duration":12},{"id":1189091,"name":"The Dirdy Birdy","duration":16},{"id":1330860,"name":"Classical Bird","duration":27},{"id":914923,"name":"Bird Music","duration":28},{"id":79338,"name":"Bird singing","duration":15},{"id":914339,"name":"Rocket","duration":1},{"id":133411,"name":"Angry Bird Ring","duration":21},{"id":1281556,"name":"Sweet Flute","duration":29},{"id":1106374,"name":"Rock Bird","duration":12},{"id":1187538,"name":"Cuckoo  Clock","duration":27},{"id":45733,"name":"Om","duration":28},{"id":199850,"name":"Ostritch","duration":19},{"id":1237376,"name":"Canary Bird Sms","duration":10},{"id":1311842,"name":"Guiter And Bird Mix","duration":26},{"id":808291,"name":"Bird Sing River","duration":24},{"id":262080,"name":"Sms Bird","duration":2},{"id":206535,"name":"Koyal","duration":29},{"id":1008068,"name":"Whoooohooooo","duration":1},{"id":1189092,"name":"The Dirdy Birdy V2","duration":16},{"id":1040450,"name":"Bird Time","duration":29},{"id":23853,"name":"Airtel Bird Mix","duration":14},{"id":113347,"name":"Mosquito Fly","duration":7},{"id":839284,"name":"Bird","duration":5},{"id":1173864,"name":"Blue Bird","duration":29},{"id":944500,"name":"Angry Birds 8bit","duration":27},{"id":954377,"name":"Violin","duration":29},{"id":964684,"name":"Angry Bird Flying 02","duration":1},{"id":314736,"name":"Koyal Ringtone","duration":7},{"id":959599,"name":"Angryteam","duration":29},{"id":346560,"name":"Mocking Bird","duration":28},{"id":200139,"name":"Cape White Eye","duration":26}]}