{"queryTime":"0 Seconds","totalCount":620,"pageNumber":4,"perPage":200,"pageCount":20,"data":[{"id":1307683,"name":"Cow Laughing","duration":15},{"id":1090415,"name":"smoker laugh cough","duration":20},{"id":1054342,"name":"HA HA HA NELSON","duration":6},{"id":923448,"name":"Child Laughing","duration":15},{"id":1049875,"name":"Groose Laughing","duration":1},{"id":1192475,"name":"Devil Laughing","duration":6},{"id":376881,"name":"Evil Tone","duration":13},{"id":1247843,"name":"Hilarious Laugh","duration":10},{"id":291601,"name":"Baby Laughing N Talk","duration":19},{"id":1228347,"name":"Ha-ha-ha","duration":3},{"id":1044847,"name":"Count of ten","duration":27},{"id":1033936,"name":"baby laughing","duration":5},{"id":1291796,"name":"Mad Cow Laugh","duration":14},{"id":163726,"name":"Laughing Baby","duration":23},{"id":101184,"name":"Young Man Laughing","duration":18},{"id":144844,"name":"Laughing","duration":7},{"id":776469,"name":"Laughing Neuro","duration":3},{"id":1338208,"name":"Baby Laughing","duration":24},{"id":146547,"name":"Tf2 Pyro","duration":2},{"id":1247379,"name":"Baby Laughing","duration":13}]}