{"queryTime":"0 Seconds","totalCount":2229,"pageNumber":1,"perPage":200,"pageCount":200,"data":[{"id":1283805,"name":"Crazily Pretty","duration":29},{"id":1281810,"name":"Full House Shalalala","duration":29},{"id":276670,"name":"Trax - Crazy","duration":22},{"id":1116499,"name":"BTS - House of Cards","duration":8},{"id":1297001,"name":"Run - You Beautiful","duration":29},{"id":322607,"name":"Ran - Never Say Bye","duration":18},{"id":244194,"name":"I Love You","duration":2},{"id":266942,"name":"Come Wa","duration":29},{"id":314223,"name":"Who Sent It","duration":3},{"id":369459,"name":"Happy Beautiful Girl","duration":20},{"id":1117014,"name":"EXO - Lightsaber 2","duration":13},{"id":979148,"name":"Crayon","duration":23},{"id":245983,"name":"Sorry I Love You","duration":24},{"id":109386,"name":"Goddest Of War Ost","duration":29},{"id":867041,"name":"Be Quiet Inst","duration":28},{"id":1304775,"name":"My Heart","duration":8},{"id":1117665,"name":"Rap Mon - I Know","duration":29},{"id":1346947,"name":"Lupin Kara","duration":19},{"id":1099651,"name":"Fated to Love You","duration":26},{"id":968893,"name":"Crash","duration":29},{"id":974508,"name":"Without You","duration":21},{"id":1145535,"name":"lookie lookie","duration":28},{"id":323062,"name":"Love Is Crazy","duration":29},{"id":131046,"name":"Message Wassuh","duration":1},{"id":1213676,"name":"Noon Eh Ggot","duration":29},{"id":1275200,"name":"Hot Issue","duration":19},{"id":801259,"name":"Vibration","duration":2},{"id":877615,"name":"Playful Kiss 02","duration":29},{"id":1179199,"name":"Atirah2008","duration":18},{"id":1304789,"name":"Heartbeat","duration":29},{"id":310824,"name":"Take Ur Message","duration":4},{"id":940436,"name":"Feeling","duration":29},{"id":1238380,"name":"Gee","duration":4},{"id":1122645,"name":"Taemin - Sayonara","duration":18},{"id":1128248,"name":"Blackpink-Boombayah","duration":20},{"id":379168,"name":"C N Blue- Im A Loner","duration":29},{"id":1307614,"name":"Goodbye My Love","duration":29},{"id":1324202,"name":"Korean Dreams","duration":16},{"id":362159,"name":"Happy Birthday Song","duration":25},{"id":1024925,"name":"As One - 21","duration":29},{"id":271655,"name":"Burunda","duration":29},{"id":273087,"name":"One Night Lover","duration":28},{"id":271955,"name":"My Dream","duration":29},{"id":1333462,"name":"Miroti Tour 2","duration":22},{"id":1117241,"name":"Taemin - Drip Drop 9","duration":16},{"id":272274,"name":"Left Heart","duration":29},{"id":983818,"name":"Promise Me","duration":19},{"id":1116422,"name":"Block b - Toy 4","duration":2},{"id":205186,"name":"Neon Eo Di Ro 2","duration":29},{"id":387564,"name":"Korean","duration":27},{"id":960686,"name":"High High","duration":22},{"id":1050496,"name":"one summer night","duration":27},{"id":386459,"name":"Spring Waltz","duration":20},{"id":204090,"name":"Gumiho","duration":18},{"id":1251398,"name":"Love Breakin Apart","duration":26},{"id":130520,"name":"Who","duration":4},{"id":1323310,"name":"Love Painting 2","duration":16},{"id":1127771,"name":"BAP - Thats My Jam","duration":16},{"id":1284894,"name":"So In Love","duration":29},{"id":1117339,"name":"Mino - WOW","duration":1},{"id":1296993,"name":"Secret- I Want You B","duration":29},{"id":189165,"name":"Lets Rocknroll","duration":27},{"id":1270561,"name":"4minute - Hot Issue","duration":29},{"id":227914,"name":"Snsd- Echo","duration":29},{"id":1151528,"name":"Teen Top - Love Is","duration":14},{"id":1301324,"name":"Youre Out","duration":18},{"id":200806,"name":"Boa- Hurricane Venus","duration":29},{"id":872173,"name":"Hello Hello Korean","duration":3},{"id":352428,"name":"Gng Korean 2","duration":29},{"id":317014,"name":"Umbrella Kara","duration":29},{"id":332710,"name":"Kcm","duration":29},{"id":314720,"name":"Saranghe","duration":18},{"id":1128407,"name":"NCT U -The 7th Sense","duration":14},{"id":940447,"name":"Sorry","duration":29},{"id":966974,"name":"Hey Girl","duration":29},{"id":1117238,"name":"Taemin - Drip Drop 6","duration":17},{"id":1162610,"name":"Winner - LMLM 3","duration":18},{"id":1239724,"name":"Robotica","duration":18},{"id":929663,"name":"Library","duration":27},{"id":273513,"name":"Gumi Sarang Haji M","duration":29},{"id":1203217,"name":"Kiss-bcoz Im A Girl1","duration":29},{"id":902600,"name":"49 Days Mintues","duration":5},{"id":386752,"name":"Saturday Night","duration":22},{"id":243524,"name":"Ukiss - 0330","duration":22},{"id":203293,"name":"Superstar Mix","duration":14},{"id":994512,"name":"Good-bye","duration":14},{"id":1203359,"name":"I Think I Luv U","duration":9},{"id":315443,"name":"Its Been A While","duration":19},{"id":310786,"name":"Ha Roo Man Keum-msg","duration":12},{"id":227288,"name":"Tik Tok","duration":29},{"id":1208712,"name":"Boa-candle Light","duration":28},{"id":323295,"name":"I Think I Love You","duration":28},{"id":887146,"name":"You Are Beautiful","duration":20},{"id":333695,"name":"Unstoppable Marriage","duration":29},{"id":1279462,"name":"There Is No Other","duration":29},{"id":122335,"name":"Jejung Calling","duration":2},{"id":198547,"name":"2pm- Ill Be Back","duration":29},{"id":153937,"name":"Mblaq Y","duration":19},{"id":187374,"name":"Loving Ice Cream","duration":10},{"id":1177038,"name":"Cute","duration":4},{"id":1124524,"name":"Fei - Fantasy","duration":29},{"id":927271,"name":"Deep Slow 2","duration":15},{"id":956821,"name":"Voicemail","duration":29},{"id":103521,"name":"Again - Dance","duration":15},{"id":1169948,"name":"GIRL FRONT","duration":29},{"id":1117245,"name":"Taemin - Press 3","duration":14},{"id":1089928,"name":"BAP excuse me","duration":29},{"id":335283,"name":"The The - It Is You","duration":29},{"id":1117284,"name":"Nuest - Overcome 7","duration":19},{"id":1198882,"name":"Oldboy-whos Talking","duration":20},{"id":1363825,"name":"Fx- Nu Abo","duration":29},{"id":1311373,"name":"As- Because Of You","duration":29},{"id":226133,"name":"Davichi Time Stop","duration":19},{"id":1117263,"name":"Nuest - Overcome 1","duration":15},{"id":951106,"name":"Beautiful Stranger","duration":9},{"id":1257472,"name":"2pm- Again  Again","duration":29},{"id":1163888,"name":"Bevy Maco So faded","duration":4},{"id":864847,"name":"Mblaq Cry","duration":28},{"id":370194,"name":"So Hot-wg","duration":29},{"id":1330026,"name":"Korean","duration":29},{"id":942102,"name":"High High","duration":22},{"id":354957,"name":"Goong","duration":29},{"id":1196189,"name":"Eru - White Snow","duration":25},{"id":117601,"name":"Cute Korean Sms","duration":4},{"id":906946,"name":"Halo","duration":20},{"id":273060,"name":"Tug Of War","duration":20},{"id":1274340,"name":"Orgol","duration":24},{"id":1118108,"name":"EXID - LIE - LE Rap","duration":24},{"id":1279789,"name":"Call Me Remix","duration":29},{"id":178086,"name":"Flymetothemoon","duration":29},{"id":174238,"name":"Youme - Knock","duration":29},{"id":912430,"name":"Epitone Project","duration":29},{"id":1015520,"name":"Letthewindblow","duration":14},{"id":1118110,"name":"EXID - LIE - Music","duration":6},{"id":221840,"name":"Still Ate Well","duration":15},{"id":333232,"name":"Reason Ringtone","duration":29},{"id":310024,"name":"Ost My Sassy Girl","duration":29},{"id":1268840,"name":"Shake Chaeyoon","duration":29},{"id":229615,"name":"Oh My Goddess","duration":29},{"id":969049,"name":"Love Is Punishment","duration":29},{"id":205894,"name":"Doremifasollatido","duration":20},{"id":874826,"name":"Beat Traitor Pt 1","duration":29},{"id":1160165,"name":"AKMU - Dinosaur","duration":9},{"id":922058,"name":"Gotsomethingtosaygd","duration":2},{"id":364129,"name":"Japanese Sms","duration":8},{"id":348888,"name":"Wanna -kara","duration":29},{"id":172067,"name":"Little Piggy","duration":14},{"id":103601,"name":"Kim Eugune","duration":29},{"id":1093043,"name":"My Lovely Girl ost","duration":29},{"id":109370,"name":"Ola Ola Ola","duration":29},{"id":1354819,"name":"Bi Rain Korean","duration":29},{"id":1292019,"name":"Festival","duration":29},{"id":313605,"name":"You Have A Call","duration":4},{"id":1090030,"name":"Warrior BAP","duration":19},{"id":1127781,"name":"BAP - Do What I Feel","duration":16},{"id":1162833,"name":"TWICE - TT","duration":3},{"id":1234973,"name":"Full Sunlight-geunsk","duration":29},{"id":920857,"name":"Answer Korean","duration":4},{"id":90459,"name":"Danger Pinokyo","duration":29},{"id":288191,"name":"Meditation Tone 2","duration":29},{"id":380904,"name":"Cinderella Man Ost","duration":29},{"id":959953,"name":"Boa Only One","duration":9},{"id":1324204,"name":"Hyuna - Change","duration":29},{"id":1116631,"name":"HyunA - RD - Chorus","duration":19},{"id":1197277,"name":"Nice","duration":29},{"id":878158,"name":"Ave Maria","duration":24},{"id":287075,"name":"Youme - Truths","duration":28},{"id":1343496,"name":"Im A Loner","duration":18},{"id":222101,"name":"Youre My Vip","duration":23},{"id":1116514,"name":"BTS - House of Cards","duration":18},{"id":974495,"name":"Shoes Iii","duration":24},{"id":192201,"name":"Abandoned","duration":18},{"id":223288,"name":"My Bus V2","duration":29},{"id":868681,"name":"The Boys Korean","duration":16},{"id":218439,"name":"Spy Muyng Wol Ost","duration":23},{"id":910657,"name":"Lovely Princess","duration":24},{"id":1185790,"name":"I Love You","duration":29},{"id":103604,"name":"2pm - Again  Again","duration":15},{"id":857738,"name":"Infinite Paradise","duration":25},{"id":904590,"name":"Sooyoung Singing","duration":27},{"id":273054,"name":"Easy Separation","duration":29},{"id":1257816,"name":"Ast1- Dynamite","duration":29},{"id":1120906,"name":"Simon D - Metronome","duration":29},{"id":1239201,"name":"Honey","duration":28},{"id":1127803,"name":"Gun - Beep","duration":29},{"id":1356126,"name":"Bboys Canon In D","duration":29},{"id":119495,"name":"Bang-as","duration":29},{"id":119252,"name":"I Am Superstar","duration":8},{"id":158722,"name":"V A- Snow Village","duration":29},{"id":866606,"name":"Paradise","duration":29},{"id":181963,"name":"The Last Haven","duration":29},{"id":1099650,"name":"Fated to Love You","duration":26},{"id":105712,"name":"Chicken Soup","duration":26},{"id":1038755,"name":"SJ Miracle","duration":29},{"id":228668,"name":"Still- Lee Hong Ki","duration":29},{"id":164369,"name":"Who Are You","duration":12},{"id":1124250,"name":"Best Guitar Beat","duration":24},{"id":1269321,"name":"Snsd- Tell Me Your W","duration":29},{"id":340181,"name":"So Na Gi","duration":28},{"id":972466,"name":"Korean Cute","duration":24}]}