{"queryTime":"0 Seconds","totalCount":5680,"pageNumber":1,"perPage":200,"pageCount":200,"data":[{"id":1066848,"name":"Ciara Is Calling Jazz","duration":37},{"id":1074376,"name":"Van Is Calling Ragtime","duration":46},{"id":1074542,"name":"Evangeline Is Calling Ragtime","duration":45},{"id":1071614,"name":"Marcos Is Calling Jazz","duration":37},{"id":1072916,"name":"Michaela Is Calling Jazz","duration":37},{"id":1070939,"name":"Lexi Is Calling Jazz","duration":37},{"id":998443,"name":"Nokia Funky Remix","duration":29},{"id":1073572,"name":"Anthony Is Calling Ragtime","duration":45},{"id":1072044,"name":"Avianna Is Calling Jazz","duration":37},{"id":103251,"name":"Classic Beat","duration":29},{"id":986522,"name":"Take The Road V1","duration":17},{"id":106114,"name":"New 007","duration":28},{"id":1072250,"name":"Alec Is Calling Jazz","duration":37},{"id":945982,"name":"Dj-house Mix","duration":5},{"id":1071012,"name":"Carleigh Is Calling Jazz","duration":37},{"id":1068205,"name":"Norah Is Calling Jazz","duration":37},{"id":1251604,"name":"Aciddon2nites4ever","duration":29},{"id":1075701,"name":"Alexander Is Calling Ragtime","duration":46},{"id":937578,"name":"Har","duration":26},{"id":1000068,"name":"Race 2","duration":28},{"id":1070559,"name":"Madilyn Is Calling Jazz","duration":37},{"id":1073710,"name":"Ansley Is Calling Ragtime","duration":45},{"id":119558,"name":"Lightning","duration":3},{"id":1074875,"name":"Isabela Is Calling Ragtime","duration":45},{"id":1067612,"name":"Tyson Is Calling Jazz","duration":37},{"id":1073378,"name":"Todd Is Calling Ragtime","duration":45},{"id":1073829,"name":"Kasey Is Calling Ragtime","duration":45},{"id":1069795,"name":"Larry Is Calling Jazz","duration":37},{"id":113130,"name":"Sweety","duration":4},{"id":1067265,"name":"Frederick Is Calling Jazz","duration":37},{"id":1072644,"name":"Hamza Is Calling Jazz","duration":37},{"id":1076299,"name":"Tiffany Is Calling Ragtime","duration":45},{"id":1074015,"name":"Harold Is Calling Ragtime","duration":45},{"id":1076218,"name":"Stacy Is Calling Ragtime","duration":45},{"id":116839,"name":"Ill Make Luv 2 You","duration":29},{"id":1085381,"name":"Funky Mood","duration":19},{"id":1075968,"name":"Maxwell Is Calling Ragtime","duration":45},{"id":1165648,"name":"arabic music7","duration":17},{"id":918123,"name":"Up Beat","duration":15},{"id":1074916,"name":"Anders Is Calling Ragtime","duration":45},{"id":1066321,"name":"Graham Is Calling Jazz","duration":37},{"id":1066782,"name":"Cristian Is Calling Jazz","duration":37},{"id":1181546,"name":"A Very Stylish Girl","duration":8},{"id":1075211,"name":"Kason Is Calling Ragtime","duration":45},{"id":1074598,"name":"Wade Is Calling Ragtime","duration":46},{"id":1073600,"name":"Axel Is Calling Ragtime","duration":45},{"id":1085185,"name":"Godot Theme Jazz","duration":29},{"id":105527,"name":"Cool Jazzy Tone","duration":16},{"id":194973,"name":"Jazz Mario","duration":14},{"id":1108706,"name":"boogywoogy","duration":9},{"id":856729,"name":"Club Mix","duration":22},{"id":1074729,"name":"Konner Is Calling Ragtime","duration":45},{"id":1075574,"name":"Lyric Is Calling Ragtime","duration":45},{"id":990732,"name":"New Year","duration":29},{"id":870012,"name":"Nokia Rock 2011","duration":22},{"id":118324,"name":"China Latina","duration":23},{"id":1075873,"name":"Yuliana Is Calling Ragtime","duration":45},{"id":254857,"name":"Lovers Cry","duration":29},{"id":1071521,"name":"Molly Is Calling Jazz","duration":37},{"id":1074942,"name":"Annabella Is Calling Ragtime","duration":45},{"id":1076035,"name":"Sloane Is Calling Ragtime","duration":45},{"id":956777,"name":"Nokia2012 Beat","duration":22},{"id":1074436,"name":"Philip Is Calling Ragtime","duration":45},{"id":288502,"name":"Ferrari Vodafone","duration":14},{"id":1073956,"name":"Eden Is Calling Ragtime","duration":45},{"id":1073882,"name":"Enoch Is Calling Ragtime","duration":46},{"id":1066064,"name":"Will Is Calling Jazz","duration":37},{"id":1073799,"name":"Amara Is Calling Ragtime","duration":45},{"id":959753,"name":"Action Reply","duration":15},{"id":1073458,"name":"Steven Is Calling Ragtime","duration":45},{"id":151699,"name":"Cena","duration":19},{"id":1074706,"name":"Maxton Is Calling Ragtime","duration":45},{"id":191131,"name":"Trumpet Blasting","duration":18},{"id":893292,"name":"Airtel Jazz","duration":26},{"id":1069992,"name":"Darien Is Calling Jazz","duration":37},{"id":115692,"name":"Sathiya","duration":29},{"id":1013026,"name":"Bossa Nova Latin","duration":29},{"id":1073353,"name":"Dakota Is Calling Ragtime","duration":45},{"id":1069091,"name":"Yazmin Is Calling Jazz","duration":37},{"id":1072562,"name":"Rafael Is Calling Jazz","duration":37},{"id":1072875,"name":"Evie Is Calling Ragtime","duration":45},{"id":1075456,"name":"Miya Is Calling Ragtime","duration":46},{"id":1071443,"name":"Natalie Is Calling Jazz","duration":37},{"id":109144,"name":"Ipl","duration":9},{"id":1067129,"name":"Cara Is Calling Jazz","duration":37},{"id":885806,"name":"Studio Sport","duration":21},{"id":1073284,"name":"Christian Is Calling Ragtime","duration":45},{"id":1072091,"name":"Aliza Is Calling Jazz","duration":37},{"id":1244516,"name":"Dorush - Accordeorus","duration":22},{"id":1286127,"name":"Arabicpolice","duration":2},{"id":1073361,"name":"Lola Is Calling Ragtime","duration":46},{"id":1073969,"name":"Adelynn Is Calling Ragtime","duration":45},{"id":191744,"name":"Honda Jazz X 2","duration":10},{"id":1075447,"name":"Kathleen Is Calling Ragtime","duration":45},{"id":1075611,"name":"Delaney Is Calling Ragtime","duration":45},{"id":1073727,"name":"Alessandra Is Calling Ragtime","duration":45},{"id":1073194,"name":"Seamus Is Calling Ragtime","duration":45},{"id":1071093,"name":"Bodhi Is Calling Jazz","duration":37},{"id":1070346,"name":"Makayla Is Calling Jazz","duration":37},{"id":1073840,"name":"Taliyah Is Calling Ragtime","duration":45},{"id":1066484,"name":"Farrah Is Calling Jazz","duration":37},{"id":107455,"name":"Music In Me Soul For","duration":29},{"id":1068420,"name":"Lilah Is Calling Jazz","duration":37},{"id":1069903,"name":"Evan Is Calling Jazz","duration":37},{"id":1075588,"name":"Cedric Is Calling Ragtime","duration":45},{"id":1067052,"name":"Karis Is Calling Jazz","duration":37},{"id":1068834,"name":"Haylie Is Calling Jazz","duration":37},{"id":1045006,"name":"Electrophile-Jazz","duration":17},{"id":1074734,"name":"Santino Is Calling Ragtime","duration":45},{"id":1067593,"name":"Kyron Is Calling Jazz","duration":37},{"id":983742,"name":"Greeck","duration":23},{"id":1067755,"name":"Yamilet Is Calling Jazz","duration":37},{"id":1075983,"name":"Darian Is Calling Ragtime","duration":46},{"id":1074303,"name":"Brooke Is Calling Ragtime","duration":45},{"id":288781,"name":"Undertaker","duration":28},{"id":1054763,"name":"chill jazz","duration":29},{"id":1073091,"name":"Israel Is Calling Ragtime","duration":45},{"id":1069342,"name":"Cayden Is Calling Jazz","duration":37},{"id":1070159,"name":"Cody Is Calling Jazz","duration":37},{"id":1069523,"name":"Ayanna Is Calling Jazz","duration":37},{"id":1073198,"name":"Emiliano Is Calling Ragtime","duration":45},{"id":1069569,"name":"Myla Is Calling Jazz","duration":37},{"id":1075597,"name":"Paul Is Calling Ragtime","duration":45},{"id":1073566,"name":"Maci Is Calling Ragtime","duration":46},{"id":1073325,"name":"Alonzo Is Calling Ragtime","duration":46},{"id":307946,"name":"Classical Jazz","duration":18},{"id":1068225,"name":"Adalynn Is Calling Jazz","duration":37},{"id":1070297,"name":"Irene Is Calling Jazz","duration":37},{"id":1072991,"name":"Keith Is Calling Ragtime","duration":46},{"id":891822,"name":"Bhangra Feat","duration":29},{"id":1074970,"name":"Adelaide Is Calling Ragtime","duration":45},{"id":1075055,"name":"Jabari Is Calling Ragtime","duration":45},{"id":1163971,"name":"Brock-Joy She Brings","duration":27},{"id":1071990,"name":"Sam Is Calling Jazz","duration":37},{"id":1108712,"name":"edm piano","duration":19},{"id":288556,"name":"Bring Me Good News","duration":14},{"id":1075007,"name":"Kylee Is Calling Ragtime","duration":45},{"id":1068989,"name":"Hank Is Calling Jazz","duration":37},{"id":871878,"name":"Nokia Latest","duration":24},{"id":1072786,"name":"Aubrianna Is Calling Ragtime","duration":45},{"id":1075152,"name":"Ari Is Calling Ragtime","duration":45},{"id":1075852,"name":"Luca Is Calling Ragtime","duration":45},{"id":1074234,"name":"Maria Is Calling Ragtime","duration":46},{"id":1075438,"name":"Bryn Is Calling Ragtime","duration":45},{"id":1074838,"name":"Adrianna Is Calling Ragtime","duration":45},{"id":1095710,"name":"Teenage Mutant Ninja","duration":29},{"id":1069374,"name":"Brooks Is Calling Jazz","duration":37},{"id":812120,"name":"Honda Jazz X","duration":20},{"id":24380,"name":"JazzVio","duration":17},{"id":1076342,"name":"Lucy Is Calling Ragtime","duration":46},{"id":1072506,"name":"Marshall Is Calling Jazz","duration":37},{"id":1076083,"name":"Felicity Is Calling Ragtime","duration":45},{"id":1066314,"name":"Colton Is Calling Jazz","duration":37},{"id":1073166,"name":"Daniela Is Calling Ragtime","duration":45},{"id":1073575,"name":"Vincenzo Is Calling Ragtime","duration":46},{"id":185035,"name":"Revenge","duration":11},{"id":1066856,"name":"Sophia Is Calling Jazz","duration":37},{"id":953793,"name":"Melody Tune","duration":4},{"id":169916,"name":"Chandi Raatein","duration":29},{"id":1074432,"name":"Edison Is Calling Ragtime","duration":45},{"id":1074609,"name":"Shane Is Calling Ragtime","duration":45},{"id":1074588,"name":"Autumn Is Calling Ragtime","duration":45},{"id":1075846,"name":"Vera Is Calling Ragtime","duration":45},{"id":1075336,"name":"Maya Is Calling Ragtime","duration":46},{"id":1075716,"name":"Mayson Is Calling Ragtime","duration":45},{"id":1074534,"name":"Kamren Is Calling Ragtime","duration":45},{"id":1075625,"name":"Krystal Is Calling Ragtime","duration":45},{"id":1073957,"name":"Braxton Is Calling Ragtime","duration":45},{"id":60875,"name":"Let's go Jazz","duration":28},{"id":1073816,"name":"Legend Is Calling Ragtime","duration":45},{"id":1068502,"name":"Brenna Is Calling Jazz","duration":37},{"id":1072852,"name":"Emmalee Is Calling Jazz","duration":37},{"id":1073199,"name":"Delilah Is Calling Ragtime","duration":45},{"id":116209,"name":"Voltage","duration":3},{"id":1073668,"name":"Sharon Is Calling Ragtime","duration":45},{"id":1073740,"name":"Carson Is Calling Ragtime","duration":45},{"id":1068051,"name":"Amina Is Calling Jazz","duration":37},{"id":60985,"name":"Jazz","duration":28},{"id":1075635,"name":"Regina Is Calling Ragtime","duration":45},{"id":1068441,"name":"Hayleigh Is Calling Jazz","duration":37},{"id":1076332,"name":"Amos Is Calling Ragtime","duration":45},{"id":32948,"name":"Transformer Txt Sms","duration":6},{"id":1197377,"name":"O Humdum","duration":17},{"id":1066611,"name":"Laura Is Calling Jazz","duration":37},{"id":1069215,"name":"Dante Is Calling Jazz","duration":37},{"id":1071385,"name":"Sonny Is Calling Jazz","duration":37},{"id":870827,"name":"Englishman In Ny","duration":17},{"id":1074845,"name":"Brooklyn Is Calling Ragtime","duration":45},{"id":1067862,"name":"Preston Is Calling Jazz","duration":37},{"id":1066462,"name":"Deandre Is Calling Jazz","duration":37},{"id":1072118,"name":"Erica Is Calling Jazz","duration":37},{"id":328264,"name":"Police Remix New","duration":14},{"id":117926,"name":"Super Piano","duration":29},{"id":1067570,"name":"Mohammed Is Calling Jazz","duration":37},{"id":1072518,"name":"Sebastian Is Calling Jazz","duration":37},{"id":1096756,"name":"Inta Omri short","duration":2},{"id":1083924,"name":"SandroEristaviSoSlo4","duration":20},{"id":1307895,"name":"Friends","duration":29},{"id":1066769,"name":"Ally Is Calling Jazz","duration":37},{"id":1075253,"name":"Morgan Is Calling Ragtime","duration":46}]}