{"queryTime":"0 Seconds","totalCount":999,"pageNumber":1,"perPage":200,"pageCount":200,"data":[{"id":816110,"name":"Goal Horn","duration":15},{"id":825334,"name":"Big Truck Horn Sms","duration":10},{"id":1131916,"name":"Gjallar Horn Destiny","duration":3},{"id":823207,"name":"Horn Sms","duration":2},{"id":175233,"name":"Horn","duration":4},{"id":879482,"name":"Car Alarm With Horn","duration":16},{"id":905023,"name":"Ship Short Blast","duration":1},{"id":1292789,"name":"Horn","duration":3},{"id":1315753,"name":"Clown Horn","duration":3},{"id":1180806,"name":"Uncle Horn","duration":29},{"id":951016,"name":"Ipl 5 Horn","duration":21},{"id":1358487,"name":"Ferrari Horn","duration":1},{"id":377748,"name":"Horn","duration":3},{"id":1177640,"name":"Dixie Horn","duration":3},{"id":803931,"name":"Dukes Of Hazard Horn","duration":3},{"id":1110230,"name":"Steam engine Whistle","duration":23},{"id":998202,"name":"3d Horn","duration":2},{"id":801281,"name":"Air Horn","duration":6},{"id":1161378,"name":"MvM Tank Siren","duration":2},{"id":1202286,"name":"Carhorn Old","duration":1},{"id":1156461,"name":"Dutch Ambulance","duration":11},{"id":169216,"name":"Ipl Music","duration":9},{"id":1286214,"name":"Clown Horn","duration":3},{"id":330416,"name":"Truck Horn","duration":8},{"id":798831,"name":"Sms Tone","duration":3},{"id":1258595,"name":"Caddyshack Car Horn","duration":4},{"id":291908,"name":"Truck Horn","duration":7},{"id":1307768,"name":"Vikingshorn","duration":2},{"id":839015,"name":"Air Horn","duration":4},{"id":829247,"name":"Baseball Sms","duration":2},{"id":1128304,"name":"Vikings Horn","duration":2},{"id":384126,"name":"Fifa Vuvuzela Horn","duration":4},{"id":1098457,"name":"Tsungi Horn","duration":19},{"id":1186471,"name":"Dixie Horn","duration":3},{"id":809321,"name":"Air Horn","duration":6},{"id":245496,"name":"Horn","duration":2},{"id":340071,"name":"Horn","duration":3},{"id":1306512,"name":"Fog Horn","duration":6},{"id":812540,"name":"Clown Horn","duration":1},{"id":1283081,"name":"Dukes Of Hazards","duration":2},{"id":1243700,"name":"Car Horn Passing By","duration":2},{"id":1178530,"name":"Tugboat Horn","duration":9},{"id":386308,"name":"Nokia Horn","duration":4},{"id":845198,"name":"Air Horn","duration":6},{"id":1358887,"name":"Horn Sms","duration":2},{"id":314091,"name":"Item Song","duration":29},{"id":850173,"name":"Truckhornh","duration":4},{"id":286112,"name":"Ayela Ayela Horn Ok","duration":25},{"id":892018,"name":"Wdm 3d Gy Mas-cstm","duration":29},{"id":1213073,"name":"Dh Horn X","duration":2},{"id":1205181,"name":"Funny Bike Horn","duration":2},{"id":795978,"name":"Clown Horn","duration":3},{"id":926261,"name":"Air Horn","duration":6},{"id":986193,"name":"Fog Horn","duration":6},{"id":1171441,"name":"Back to the Future H","duration":6},{"id":363190,"name":"Car Horn","duration":6},{"id":980092,"name":"Car Horn","duration":1},{"id":204562,"name":"The Mask1994 Horn","duration":4},{"id":1105212,"name":"Pakistan Bus Horn 1","duration":5},{"id":107906,"name":"Fox Horn","duration":3},{"id":1356962,"name":"Air Sms Horn","duration":6},{"id":1092026,"name":"3d blast air horn","duration":14},{"id":1133477,"name":"Roseanne Blues","duration":26},{"id":967976,"name":"Funny Pew Pew","duration":1},{"id":938720,"name":"Fire Brigade Horn","duration":16},{"id":968833,"name":"Price Is Right Horn","duration":4},{"id":363595,"name":"Police Horn","duration":13},{"id":384422,"name":"Horn","duration":19},{"id":242385,"name":"Fail Horn","duration":5},{"id":241589,"name":"Wdm 2a Horn","duration":16},{"id":1249865,"name":"Bike Horn","duration":2},{"id":384995,"name":"Dixie Horn","duration":3},{"id":377954,"name":"Dixie Horn","duration":3},{"id":1126178,"name":"The price is right","duration":6},{"id":849440,"name":"Sms Dixie Horn","duration":3},{"id":1363994,"name":"Ipl Horn","duration":28},{"id":1014774,"name":"Radio Air Horn","duration":6},{"id":845446,"name":"Iphone Old Car Horn","duration":2},{"id":854712,"name":"Cheeky Italian Horn","duration":2},{"id":885220,"name":"Siren","duration":5},{"id":1224074,"name":"Horn","duration":6},{"id":1321197,"name":"Train 3d Sound","duration":28},{"id":332048,"name":"Air Horn","duration":6},{"id":1114554,"name":"Horn","duration":2},{"id":1201197,"name":"Viking Horn","duration":4},{"id":345658,"name":"Horn","duration":4},{"id":1127103,"name":"Blaze horn","duration":2},{"id":1259282,"name":"Tuner Horn","duration":1},{"id":262301,"name":"Fail Horn","duration":4},{"id":817129,"name":"Base Ball Horn","duration":2},{"id":1319899,"name":"Horn","duration":2},{"id":888886,"name":"Air Horn","duration":6},{"id":1195772,"name":"Haradrimhorn2","duration":5},{"id":1346971,"name":"Old Car Horn","duration":1},{"id":813422,"name":"Train Horn","duration":28},{"id":1210458,"name":"Typhoon Horn","duration":20},{"id":1104563,"name":"Elves Horn - LOTR","duration":4},{"id":988700,"name":"Vintage Car  Horn","duration":6},{"id":1323980,"name":"Air Hornzz","duration":4},{"id":1209930,"name":"Price Is Right Horn","duration":4},{"id":922420,"name":"Ipl5 Horn","duration":2},{"id":801239,"name":"Dj Horn 2010","duration":2},{"id":1271136,"name":"Swedish Police","duration":22},{"id":859413,"name":"Car Horn","duration":7},{"id":1179965,"name":"Baden-powell","duration":29},{"id":363811,"name":"Horn","duration":9},{"id":346151,"name":"Crazy Horn 2010","duration":29},{"id":1115732,"name":"Police Siren 1","duration":12},{"id":1090336,"name":"Isengard-Horn","duration":12},{"id":1083885,"name":"Wake Up Horn","duration":4},{"id":1353544,"name":"Funny","duration":29},{"id":885166,"name":"Airhorn","duration":2},{"id":310457,"name":"Bus Hornnn","duration":3},{"id":1086823,"name":"NHL 94 Goal Siren","duration":5},{"id":1023399,"name":"Passing Train","duration":4},{"id":328555,"name":"Truck Horn","duration":8},{"id":1116717,"name":"Train passing by","duration":29},{"id":855945,"name":"Horn","duration":3},{"id":785359,"name":"Sms Lee Horn","duration":2},{"id":346661,"name":"Police 911","duration":22},{"id":97504,"name":"Horn","duration":6},{"id":1115731,"name":"Police Siren 2","duration":11},{"id":1346805,"name":"Car Horn","duration":29},{"id":793955,"name":"Clown Horn","duration":3},{"id":1169479,"name":"Airhorn","duration":2},{"id":284699,"name":"Horn Bajade","duration":16},{"id":1126482,"name":"Blow Horn Fast","duration":11},{"id":861097,"name":"Air Horn","duration":6},{"id":1106808,"name":"Rangers Goal Song","duration":29},{"id":842561,"name":"X Horn","duration":2},{"id":1203457,"name":"Bollywood","duration":29},{"id":1041149,"name":"GTA 5 Classical Horn","duration":4},{"id":1054571,"name":"Army Wake Up","duration":21},{"id":892011,"name":"Wdg 3a Gy","duration":2},{"id":121337,"name":"Horn Sonata","duration":19},{"id":926090,"name":"Trucker Text","duration":4},{"id":205269,"name":"Cartoon Horn","duration":4},{"id":837185,"name":"General Lee Horn","duration":2},{"id":1321567,"name":"Air Horn","duration":6},{"id":1171206,"name":"ClearTrainOnTracks","duration":7},{"id":995995,"name":"Redneck Horn","duration":2},{"id":793406,"name":"Honda Baja Horn","duration":1},{"id":1200650,"name":"Broken Fire Horn","duration":10},{"id":242760,"name":"Air Horn","duration":6},{"id":158134,"name":"Dh Horn","duration":2},{"id":996543,"name":"Hornline","duration":11},{"id":1042007,"name":"Air Horn","duration":1},{"id":1322632,"name":"Bilhorn","duration":1},{"id":241750,"name":"Cool Mexican Horn","duration":3},{"id":1263902,"name":"Long Horn","duration":29},{"id":116733,"name":"Fog Horn","duration":7},{"id":313815,"name":"Dixie Horn","duration":3},{"id":1200861,"name":"Airchime Kh","duration":28},{"id":1176364,"name":"Dixie Horn","duration":3},{"id":782449,"name":"Train","duration":4},{"id":115354,"name":"Horn","duration":2},{"id":1171265,"name":"Car Horn","duration":2},{"id":786883,"name":"Vuvuzela","duration":28},{"id":1013015,"name":"Bicycle Horn","duration":5},{"id":243071,"name":"Ipl4 V Mumbai Ind","duration":29},{"id":993926,"name":"Bicycle Horn","duration":3},{"id":804226,"name":"Boat Horn","duration":2},{"id":843754,"name":"Ipl4 Dj Rock","duration":24},{"id":186499,"name":"Into The Night","duration":19},{"id":358990,"name":"Remix Horn","duration":29},{"id":102624,"name":"Horn","duration":9},{"id":852829,"name":"Police Chilian","duration":11},{"id":1143885,"name":"Trumpet n Beat","duration":20},{"id":1039596,"name":"Car Horn","duration":2},{"id":363714,"name":"Horn Sms","duration":4},{"id":913934,"name":"Dixie Air Horn","duration":3},{"id":965639,"name":"Vikings Horn","duration":2},{"id":996548,"name":"Horn It Black","duration":11},{"id":920561,"name":"Ipl 5 Horn Tune","duration":19},{"id":1132027,"name":"Gjallar Horn","duration":5},{"id":843874,"name":"Ship Horn","duration":8},{"id":1094758,"name":"Sound of a Sax","duration":23},{"id":858309,"name":"Foghorn","duration":6},{"id":867076,"name":"Air Horn","duration":4},{"id":781439,"name":"3d Air Horn","duration":6},{"id":1262451,"name":"Dh Horn X","duration":2},{"id":1358489,"name":"Ferrari Horn","duration":1},{"id":1107218,"name":"vailiXi","duration":9},{"id":1106126,"name":"Electrical Air Horn","duration":3},{"id":1247511,"name":"Train Pass","duration":26},{"id":785918,"name":"Air Horn Sms","duration":6},{"id":1055540,"name":"horn battle","duration":4},{"id":1292788,"name":"The Horn Track","duration":29},{"id":251881,"name":"Cool Horn","duration":18},{"id":1324417,"name":"Airhornscratch","duration":3},{"id":328395,"name":"General Lee Horn","duration":2},{"id":1351079,"name":"Dixie Horn","duration":2},{"id":1219238,"name":"Boat Horn","duration":7},{"id":1001419,"name":"Fog Horn","duration":4},{"id":918710,"name":"Ipl Horn Tone","duration":28},{"id":939356,"name":"Train 3d Sound","duration":28},{"id":863593,"name":"Shofar","duration":23},{"id":1202278,"name":"Bicycle Horn","duration":1},{"id":786384,"name":"Vuvuzela Sound","duration":8},{"id":824812,"name":"Horn","duration":1}]}