{"queryTime":"0 Seconds","totalCount":"236","pageNumber":1,"perPage":200,"pageCount":200,"data":[{"id":810516,"name":"Loud Alarm","duration":9},{"id":1355516,"name":"Nice Beats","duration":28},{"id":1177010,"name":"Clock Alarm","duration":2},{"id":193918,"name":"Best Loud","duration":5},{"id":997598,"name":"Loud Wake Up Alarm","duration":22},{"id":1036620,"name":"Ultimate Alarm 2014","duration":29},{"id":1050476,"name":"Alarm Loud","duration":19},{"id":819294,"name":"Loud Wake Up Alarm","duration":12},{"id":1005384,"name":"Alarm Clock Sound Hd","duration":27},{"id":1035225,"name":"Clock Alarm Htc 2014","duration":16},{"id":1134819,"name":"Screamtone","duration":15},{"id":1039930,"name":"Number1 Wake Up Tone","duration":24},{"id":996187,"name":"Clock-alert9-iphone5","duration":21},{"id":999305,"name":"No1 Alarm Clock 01","duration":17},{"id":331086,"name":"Alarm Clock","duration":29},{"id":1039852,"name":"A L A R M - tone","duration":28},{"id":996679,"name":"Alarm-no1 Samsung","duration":17},{"id":1008373,"name":"Cool Alarm Galaxy S4","duration":28},{"id":1316494,"name":"Loud Train Horn","duration":15},{"id":1017920,"name":"Pg Dbl 2","duration":29},{"id":974903,"name":"Alarm Crazy Loud","duration":22},{"id":1007682,"name":"Best Alarm Ever","duration":8},{"id":1039931,"name":"ALARM CLOCK CLASSIC","duration":13},{"id":1224896,"name":"Weapons Alert","duration":18},{"id":998242,"name":"Alarm-extreme-iphone","duration":19},{"id":1151375,"name":"Other World Alarm","duration":30},{"id":1044215,"name":"ALARM LOUD MIX NEW","duration":29},{"id":1008979,"name":"Extra Alarm Iphone5","duration":19},{"id":1001761,"name":"Alarma Loud No1","duration":10},{"id":997602,"name":"Morning Alarm Clock9","duration":5},{"id":1036128,"name":"NEW HTC1 Clock Alarm","duration":24},{"id":1337548,"name":"Smoke Alarm","duration":10},{"id":1226539,"name":"Loud Alarm","duration":24},{"id":1100230,"name":"Emergency Alert","duration":13},{"id":12719,"name":"SeaGulls","duration":4},{"id":1109414,"name":"Pass Alarm","duration":13},{"id":1036120,"name":"Extreme Clock Alarm1","duration":27},{"id":1008368,"name":"Handy Wake Up Alarm","duration":14},{"id":1324821,"name":"Cute Funny Alarm","duration":9},{"id":1039842,"name":"sony clock alert 3","duration":26},{"id":1001375,"name":"Arcade Clock Alert","duration":18},{"id":837842,"name":"Siren Sms Alert","duration":9},{"id":777289,"name":"Voo Voo","duration":13},{"id":1025697,"name":"GTA 5 Alarm","duration":29},{"id":1001749,"name":"Wistle New Nokia","duration":22},{"id":836262,"name":"Flurry","duration":24},{"id":1031162,"name":"Fire alarm part 1","duration":29},{"id":386071,"name":"Alarm Noise","duration":28},{"id":277594,"name":"Wake Up","duration":8},{"id":1251671,"name":"Alarm Loud","duration":3},{"id":996589,"name":"Louder","duration":3},{"id":1254306,"name":"Hip Hop Alarm 2009","duration":8},{"id":1003389,"name":"Stand-up Clock Alarm","duration":28},{"id":1236595,"name":"Alarm Clock","duration":7},{"id":364234,"name":"Oldschoolclock","duration":6},{"id":1041358,"name":"Clock Alarm Samsung","duration":19},{"id":1003393,"name":"Iphone5 Alarm 2013","duration":26},{"id":997611,"name":"Best Htc Alarm 2013","duration":18},{"id":1000974,"name":"No1 Clock Alarm","duration":10},{"id":1151374,"name":"Space Alarm","duration":30},{"id":5272,"name":"Air Alarm","duration":20},{"id":1173918,"name":"Explo","duration":11},{"id":1044214,"name":"ALARM BELL MIX NEW","duration":29},{"id":1039154,"name":"Cool Clock Alarm","duration":27},{"id":827514,"name":"Super Sonic Alarm","duration":17},{"id":1039972,"name":"Loud Wake Up Alarm","duration":26},{"id":1176364,"name":"Dixie Horn","duration":3},{"id":1005949,"name":"New Alarm Iphone5","duration":18},{"id":1179949,"name":"Big Clock Alarm","duration":13},{"id":330421,"name":"Car Alarm Loud","duration":15},{"id":1012577,"name":"Alarm","duration":15},{"id":997442,"name":"Alarm Horn Wake Up","duration":9},{"id":110715,"name":"Train Alarm","duration":9},{"id":901795,"name":"Alien Alert","duration":27},{"id":988388,"name":"Alarm Ultima Loud","duration":27},{"id":978772,"name":"Flute Loud Alarm","duration":26},{"id":1107692,"name":"alarm sound","duration":1},{"id":1039926,"name":"Nexus7 Alarm Clock 2","duration":29},{"id":938049,"name":"Best Alarm","duration":17},{"id":1036135,"name":"Morning Clock Alarm","duration":17},{"id":1280629,"name":"Loud Alarm Beep","duration":4},{"id":1136861,"name":"Reveille Loud","duration":21},{"id":1239368,"name":"Car Alarm Loud","duration":15},{"id":1039845,"name":"Wake up-Alarm Clock","duration":28},{"id":1226541,"name":"Loud Alarm","duration":17},{"id":997775,"name":"Wake Up Alarm 1a","duration":8},{"id":1005309,"name":"Psssssssssssglug13","duration":29},{"id":1039544,"name":"ClockAlarmExtreme 99","duration":29},{"id":292066,"name":"This Will Wake You","duration":22},{"id":1138966,"name":"Loud Pager Alarm SIM","duration":9},{"id":995563,"name":"Alarm For Iphone 5","duration":17},{"id":385744,"name":"Alarm","duration":14},{"id":1008982,"name":"Clock Alarm Pacman 1","duration":29},{"id":1008032,"name":"Alarm Tone Galaxy S4","duration":27},{"id":1036066,"name":"SnoozeAlert GalaxyS4","duration":24},{"id":231917,"name":"Techno Trend Loud","duration":20},{"id":5128,"name":"Msg Alert II","duration":2},{"id":1167288,"name":"Emergency Alarm Tone","duration":15},{"id":999307,"name":"Wake Up Clock Alarm","duration":14},{"id":995268,"name":"Extreme Wake Up Tone","duration":9},{"id":1040915,"name":"Clock Alert new HTC1","duration":27},{"id":347083,"name":"Alarm Loud","duration":3},{"id":998793,"name":"Clock Alert 2013 Htc","duration":15},{"id":993300,"name":"Alarm-clock 2013","duration":28},{"id":1172463,"name":"Cop Car","duration":2},{"id":974939,"name":"Alarm Sms Tone","duration":2},{"id":1037468,"name":"New Clock Alarm HTC1","duration":24},{"id":791983,"name":"Alarm Loud","duration":2},{"id":62083,"name":"SeaGulls","duration":29},{"id":973737,"name":"Cool Alarm Sound","duration":27},{"id":1235240,"name":"Super Sound","duration":15},{"id":1221435,"name":"Weoweoweower","duration":24},{"id":1178530,"name":"Tugboat Horn","duration":9},{"id":901797,"name":"Alien Alarm","duration":29},{"id":243708,"name":"Best Alarm","duration":16},{"id":1043020,"name":"Special Alarm iPhone","duration":26},{"id":1041266,"name":"No1 Wakeup Alarm","duration":25},{"id":827137,"name":"Clock Alarm","duration":9},{"id":810769,"name":"Army Trumpet Loud","duration":17},{"id":997168,"name":"Nokia Alert Clock 2","duration":8},{"id":1099016,"name":"Loud continuous beep","duration":29},{"id":1113658,"name":"Slow Alert","duration":18},{"id":996080,"name":"Alarm Ultimo Iphone5","duration":28},{"id":1039862,"name":"Sony Clock Alert 1","duration":28},{"id":1008356,"name":"Loud Alarm Clock","duration":20},{"id":1118312,"name":"House Fire Alert","duration":18},{"id":1140269,"name":"WARNING","duration":29},{"id":998586,"name":"Alarm Sound Wake Up","duration":21},{"id":168971,"name":"Guitar For Alarm","duration":11},{"id":814226,"name":"Wacko Alarm","duration":29},{"id":1094208,"name":"Whistle Intro","duration":18},{"id":1347914,"name":"Text Alarm","duration":4},{"id":1085111,"name":"Highest Alert","duration":14},{"id":1003756,"name":"Alarm Clock No1","duration":29},{"id":345860,"name":"Alarm Chicken","duration":7},{"id":1040641,"name":"Alarm ring 3","duration":27},{"id":1042173,"name":"iPhone5AlarmBuzzer","duration":26},{"id":998788,"name":"Clock Alert Iphone5","duration":26},{"id":1208340,"name":"Siren","duration":17},{"id":1142748,"name":"WARNING9999","duration":29},{"id":1164867,"name":"WakeUp-Alarm-2017","duration":15},{"id":800302,"name":"Insane Alarm","duration":7},{"id":973487,"name":"Alarm For Android","duration":19},{"id":1035363,"name":"Extreme Clock Alarm","duration":10},{"id":110576,"name":"Alarm Clock","duration":5},{"id":1039843,"name":"Sony Clock Alert 2","duration":28},{"id":1201146,"name":"Air Raid Alarm","duration":29},{"id":996685,"name":"Clock Alarm Extreme","duration":7},{"id":1036343,"name":"Alarm Clock 010","duration":28},{"id":827140,"name":"War Alarm","duration":23},{"id":1137931,"name":"Amazing Grace","duration":29},{"id":1160884,"name":"Viking Alarm","duration":12},{"id":1278884,"name":"Alarm","duration":22},{"id":841688,"name":"Best Alarm","duration":22},{"id":1008130,"name":"Htc One Alarm Sound","duration":23},{"id":1043047,"name":"Alarm Clock GTA6","duration":29},{"id":1119229,"name":"Wailing stone","duration":2},{"id":1143901,"name":"Shelby Loop","duration":29},{"id":870180,"name":"Alarm","duration":10},{"id":1151373,"name":"Acid Alarm","duration":30},{"id":1036098,"name":"--ALARM-SOUND--","duration":17},{"id":1039985,"name":"Clock-Alert-Android4","duration":26},{"id":913931,"name":"Sms Alarm","duration":4},{"id":1179942,"name":"Siren","duration":7},{"id":973751,"name":"Cool Alarm Sound","duration":5},{"id":1036030,"name":"iPhone6 CLOCK ALERT","duration":28},{"id":1023226,"name":"Shrill9532","duration":13},{"id":1003333,"name":"No1 Wake Up Alarm X","duration":14},{"id":1302222,"name":"Iphone Alarm New","duration":7},{"id":996818,"name":"Loud Alarm 2013","duration":22},{"id":119085,"name":"Alarm Tone","duration":20},{"id":1002935,"name":"Real Loud Alarm","duration":4},{"id":191131,"name":"Trumpet Blasting","duration":18},{"id":867490,"name":"Squeaky Deaky","duration":28},{"id":973736,"name":"Best Android Alarm","duration":22},{"id":1337547,"name":"Air Horn","duration":1},{"id":1004953,"name":"Wake Up Tone No1","duration":29},{"id":1084339,"name":"Phone Alert","duration":14},{"id":1008974,"name":"Wakeupalarm2000","duration":29},{"id":1035364,"name":"WakeUpClockExtreme","duration":13},{"id":1159841,"name":"HURRY UP","duration":1},{"id":1302227,"name":"Wake Up New Loud","duration":7},{"id":1010203,"name":"A L A R M Sound L G","duration":13},{"id":353980,"name":"Alarm In Camp","duration":9},{"id":1155575,"name":"Alarm New Samsung S8","duration":27},{"id":973486,"name":"Android Alarm 2013","duration":20},{"id":1199275,"name":"20sec Noise","duration":20},{"id":803961,"name":"Glassgirl","duration":11},{"id":981739,"name":"Ttwu7","duration":6},{"id":1100217,"name":"School Bell Ringing","duration":12},{"id":1043284,"name":"Alarm ring 2 V2","duration":27},{"id":1331688,"name":"Crazy Loud Alarm","duration":1},{"id":827144,"name":"Nuclear Alarm","duration":24},{"id":999408,"name":"Alert Clock Sound 13","duration":20},{"id":278175,"name":"Wake Up Time","duration":5},{"id":1155027,"name":"boom","duration":30},{"id":802205,"name":"Best Alarm","duration":17},{"id":783720,"name":"Factory Alarm","duration":18},{"id":845434,"name":"No1 Alarm 2011","duration":10},{"id":291883,"name":"Car Alarm Clock","duration":29}]}