{"queryTime":"0 Seconds","totalCount":732,"pageNumber":1,"perPage":200,"pageCount":200,"data":[{"id":1094208,"name":"Whistle Intro","duration":18},{"id":855922,"name":"Eerie Halloween","duration":19},{"id":1136373,"name":"Happy Halloween","duration":2},{"id":865173,"name":"Halloween","duration":20},{"id":1142371,"name":"SCARIEST Sound 2","duration":29},{"id":1094349,"name":"Happy Halloween","duration":29},{"id":1172134,"name":"Addams family","duration":30},{"id":827292,"name":"Airtel Halloween","duration":28},{"id":866521,"name":"Halloween","duration":28},{"id":933222,"name":"Mike Myers Theme","duration":29},{"id":1165513,"name":"Evil Bell","duration":5},{"id":994287,"name":"Sleep Little Baby","duration":27},{"id":1011857,"name":"Haunting Pitch","duration":29},{"id":1024678,"name":"halloween techno mix","duration":29},{"id":1145560,"name":"Laurie","duration":3},{"id":154245,"name":"Halloween Theme","duration":25},{"id":1147483,"name":"NOTDemons","duration":11},{"id":1183400,"name":"Halloween Night","duration":29},{"id":199234,"name":"Halloween Land","duration":7},{"id":154438,"name":"Monster Mash","duration":14},{"id":1305037,"name":"Cool Halloweenymusic","duration":29},{"id":365938,"name":"The Munsters Theme","duration":17},{"id":1093388,"name":"Psychosis","duration":29},{"id":864951,"name":"Halloween","duration":26},{"id":332042,"name":"Halloween Music","duration":23},{"id":1090694,"name":"RingaaroundtheRosie","duration":24},{"id":143149,"name":"Elvira Theme 2","duration":23},{"id":1184827,"name":"Zombie 2 Theme","duration":28},{"id":1141175,"name":"siccin","duration":29},{"id":380719,"name":"Halloween H2o Real","duration":23},{"id":331084,"name":"Undertaker Theme","duration":29},{"id":1170796,"name":"Discordant Note","duration":2},{"id":290176,"name":"Skeleton Song","duration":29},{"id":161909,"name":"Doctors Office","duration":29},{"id":864953,"name":"Halloween","duration":24},{"id":255657,"name":"Halloween Theme","duration":25},{"id":78618,"name":"Saw 3D - MOS Halloween Challenge","duration":30},{"id":1093378,"name":"Horror Sound FX","duration":11},{"id":371351,"name":"Techno Halloween Mix","duration":19},{"id":328080,"name":"Halloween","duration":29},{"id":332046,"name":"Evil Laugh","duration":13},{"id":817003,"name":"Very Scary Sounds","duration":20},{"id":1097426,"name":"Cryptkeeper Laugh","duration":11},{"id":867353,"name":"Halloween","duration":15},{"id":199193,"name":"Oldest Horror Tune","duration":16},{"id":324253,"name":"Halloween","duration":25},{"id":316231,"name":"Halloween Horror","duration":17},{"id":1093983,"name":"Halloween Reworked","duration":29},{"id":858137,"name":"Halloween","duration":29},{"id":1054194,"name":"Halloween 1978","duration":22},{"id":854821,"name":"Halloween Music","duration":20},{"id":863376,"name":"Footstepshalloween","duration":8},{"id":817221,"name":"Eerie","duration":29},{"id":862826,"name":"Halloween","duration":29},{"id":98268,"name":"Saw 3D - MOS Halloween Challenge","duration":30},{"id":166465,"name":"Evil Laugh","duration":6},{"id":1157668,"name":"Hysteric Laugh","duration":4},{"id":1147117,"name":"Still He Kills","duration":3},{"id":307795,"name":"Haunted Mommy","duration":10},{"id":154429,"name":"Creepy Laugh","duration":4},{"id":212539,"name":"Hocus Pocus","duration":25},{"id":812830,"name":"Creepy Call","duration":9},{"id":801816,"name":"Evil Laugh","duration":3},{"id":1022472,"name":"Castle Halloween 2","duration":5},{"id":862894,"name":"Halloween Angry Bird","duration":29},{"id":1169192,"name":"IT - Pennywise laugh","duration":2},{"id":1021776,"name":"HALLOWEEN","duration":26},{"id":981792,"name":"Happy Halloween","duration":2},{"id":119518,"name":"Have Some Candy","duration":11},{"id":855924,"name":"Evil Laugh","duration":14},{"id":1211478,"name":"The Bride Lives","duration":20},{"id":1093634,"name":"Halloween Remix Song","duration":29},{"id":1002610,"name":"Halloween-theme","duration":28},{"id":1142367,"name":"Piano HD","duration":28},{"id":314205,"name":"Zombie Meal","duration":11},{"id":161986,"name":"Spookyscaryskeletons","duration":24},{"id":1093390,"name":"What Is That","duration":13},{"id":354550,"name":"Halloween Theme","duration":18},{"id":1086761,"name":"Seventy Eight","duration":29},{"id":43740,"name":"Somethin'Takes a Part o'Me - RC Week 134","duration":28},{"id":275963,"name":"Deathly Halloween","duration":28},{"id":853102,"name":"Halloween 02","duration":19},{"id":346992,"name":"Halloween","duration":11},{"id":890815,"name":"Dream Meltic 2","duration":24},{"id":345850,"name":"Scary Call","duration":15},{"id":1347309,"name":"Halloween Blokk","duration":26},{"id":863722,"name":"Halloween Ringer","duration":27},{"id":1162054,"name":"zombies","duration":5},{"id":1086767,"name":"H A Double L O","duration":20},{"id":55592,"name":"HALLOWEEN OLD BUT GOLD","duration":30},{"id":982298,"name":"Halloween","duration":29},{"id":982990,"name":"Halloween Ii","duration":29},{"id":141233,"name":"1 Good Eye","duration":13},{"id":97008,"name":"Halloween","duration":6},{"id":981794,"name":"Spooky Chirp","duration":1},{"id":1047874,"name":"Best Happy Halloween","duration":2},{"id":307909,"name":"Vampire Speaking","duration":13},{"id":1297439,"name":"Halloween","duration":18},{"id":1135414,"name":"Bubble bubble hex","duration":5},{"id":907186,"name":"Halloween Decoration","duration":29},{"id":863369,"name":"Vampire Answerphone","duration":29},{"id":13239,"name":"Scary Halloween by antonis1978","duration":30},{"id":855189,"name":"Simple Boo","duration":1},{"id":1161938,"name":"Creepy Music Box","duration":8},{"id":978152,"name":"Halloween Stroll","duration":28},{"id":1168809,"name":"halloween","duration":29},{"id":1244106,"name":"Thunder Laugh","duration":5},{"id":223227,"name":"Metal Halloween","duration":29},{"id":1211445,"name":"Spooky Laughter","duration":10},{"id":1145561,"name":"Hallo18","duration":24},{"id":1298534,"name":"Merry-go Round","duration":17},{"id":343398,"name":"Halloween Theme Song","duration":29},{"id":43118,"name":"Halloween Remix","duration":30},{"id":1099922,"name":"Halloween","duration":8},{"id":328972,"name":"Mad Laughter","duration":11},{"id":919827,"name":"Halloween Theme","duration":21},{"id":329580,"name":"Halloween","duration":28},{"id":813739,"name":"Mix Of Scary Noises","duration":29},{"id":982979,"name":"Evil Laugh","duration":15},{"id":1117858,"name":"Clash Of Clans","duration":1},{"id":1086763,"name":"Michael Kills","duration":1},{"id":863379,"name":"Ghostly Laugh","duration":22},{"id":1293005,"name":"God Of Death","duration":6},{"id":817002,"name":"Halloween Scary Tone","duration":27},{"id":854816,"name":"Halloween Scream","duration":23},{"id":856286,"name":"Halloween","duration":26},{"id":1197130,"name":"Nyt Of D Living Dead","duration":16},{"id":1093387,"name":"Crazy Scary Music","duration":29},{"id":1183838,"name":"Dark Shadows","duration":8},{"id":154897,"name":"Scream Of Fright","duration":3},{"id":870186,"name":"Sci-fi Creepy","duration":9},{"id":1204358,"name":"Igor Says","duration":6},{"id":154553,"name":"Monster Mash","duration":17},{"id":15163,"name":"From halloween","duration":15},{"id":141983,"name":"Gothic Piano","duration":14},{"id":859203,"name":"Halloween Remix","duration":17},{"id":156561,"name":"Scary Electronic","duration":29},{"id":853985,"name":"Scary Laugh","duration":3},{"id":1033709,"name":"Mysterious Family","duration":27},{"id":1093381,"name":"Chilling Voices","duration":24},{"id":379573,"name":"Creeping Up","duration":13},{"id":154889,"name":"Wolfs Howl","duration":4},{"id":150941,"name":"Headless Horseman","duration":22},{"id":1161936,"name":"The Family","duration":19},{"id":981795,"name":"Getting Closer","duration":17},{"id":864632,"name":"Melanie Vampire Call","duration":16},{"id":287283,"name":"Halloween","duration":29},{"id":1096228,"name":"Evil Laugh 3 AMG","duration":8},{"id":1169857,"name":"IT 2017","duration":6},{"id":1133508,"name":"Happy Holidays","duration":29},{"id":154899,"name":"Ghost Moan","duration":3},{"id":1094091,"name":"MediEvil - Map","duration":29},{"id":813937,"name":"Creepy","duration":23},{"id":1131680,"name":"Werewolf Howling 1","duration":8},{"id":1145232,"name":"Diabolik Lovers OP2","duration":27},{"id":354820,"name":"Halloween","duration":26},{"id":41074,"name":"FREDDY IS BACK - MOS HALLOWEEN","duration":29},{"id":815644,"name":"Halloween Remix","duration":29},{"id":862711,"name":"I See U","duration":5},{"id":1135439,"name":"Scary Bells","duration":21},{"id":857204,"name":"Crow","duration":3},{"id":1295195,"name":"Halloween Phone","duration":13},{"id":140541,"name":"Headless Horseman","duration":23},{"id":854382,"name":"Frankenstein","duration":10},{"id":1291038,"name":"Man Screaming","duration":13},{"id":1211640,"name":"Halloween","duration":18},{"id":996402,"name":"Angry Birds 2013","duration":29},{"id":1177937,"name":"Halloween Theme","duration":29},{"id":353628,"name":"Halloween Horror","duration":29},{"id":1093382,"name":"Evil Laugh","duration":8},{"id":277957,"name":"Trick Or Treat","duration":28},{"id":325296,"name":"Silence Of The Lambs","duration":18},{"id":944733,"name":"Halloween Theme Song","duration":29},{"id":385964,"name":"Scared Stiff","duration":20},{"id":307840,"name":"I See You","duration":18},{"id":1210837,"name":"Barbe Bleue","duration":20},{"id":372655,"name":"Hellraiser Pinhead","duration":29},{"id":307934,"name":"Halloween Text","duration":5},{"id":43680,"name":"Freddy's Back On Halloween - RC Week 134","duration":29},{"id":154304,"name":"Halloween Night","duration":16},{"id":978809,"name":"Rocky Horror Intro","duration":29},{"id":1099920,"name":"Beat That Snitch","duration":8},{"id":300389,"name":"Goosebumps","duration":13},{"id":344424,"name":"Creepy-violin","duration":18},{"id":1298412,"name":"Esto Es Halloween","duration":11},{"id":1319701,"name":"Kane Halloween Theme","duration":28},{"id":1211462,"name":"Monster Speaks","duration":11},{"id":1145556,"name":"Nineteen63","duration":25},{"id":154343,"name":"Monster Mash","duration":14},{"id":367561,"name":"Halloween","duration":11},{"id":1005408,"name":"Halloween","duration":25},{"id":160093,"name":"Aka Aka Halloween","duration":3},{"id":817030,"name":"Halloween Sounds","duration":23},{"id":1180438,"name":"Halloween2","duration":4},{"id":866246,"name":"Halloween Nokia","duration":4},{"id":1142366,"name":"Xtreme VOL 1","duration":29},{"id":855925,"name":"Halloween Music","duration":27},{"id":26878,"name":"Pyscho (The Murder)","duration":25},{"id":1142365,"name":"chloes lullaby","duration":29},{"id":837102,"name":"Doink The Evil Clown","duration":15}]}