{"queryTime":"0 Seconds","totalCount":1480,"pageNumber":1,"perPage":200,"pageCount":200,"data":[{"id":235763,"name":"Alive - Girugamesh","duration":28},{"id":864830,"name":"Spicy Girl Puchiko","duration":6},{"id":876383,"name":"Believe In Nexus","duration":25},{"id":1118265,"name":"Kantannakoto","duration":29},{"id":1276028,"name":"Back On -chain","duration":19},{"id":1220336,"name":"Fantasy","duration":16},{"id":1321063,"name":"Sparking 1000","duration":29},{"id":255678,"name":"Aitakatta","duration":1},{"id":374447,"name":"Kimi No Kioku","duration":29},{"id":303693,"name":"Tenchu- Op","duration":29},{"id":1051820,"name":"the flowers of evil","duration":29},{"id":1333457,"name":"Doushite Remix 2","duration":28},{"id":1086031,"name":"Youve got a messege","duration":1},{"id":1143240,"name":"renai hunter dance","duration":14},{"id":884957,"name":"Kalafina - Sprinter","duration":29},{"id":381104,"name":"Konayuki","duration":27},{"id":1351064,"name":"Toki Remix 6","duration":29},{"id":288077,"name":"Konayuki-remioromen","duration":29},{"id":1145162,"name":"Onii Chan","duration":1},{"id":331076,"name":"Japanese School Bell","duration":11},{"id":332344,"name":"Liar Game","duration":29},{"id":1185372,"name":"Densetsu -poi","duration":28},{"id":269517,"name":"Romeo And Juliet","duration":29},{"id":1055520,"name":"Drums japanese","duration":27},{"id":315415,"name":"Hunter X Hunter Op2","duration":22},{"id":316643,"name":"Japan Guilty Beauty","duration":20},{"id":1094319,"name":"Reincarnation","duration":24},{"id":1090424,"name":"Ever Snow","duration":29},{"id":888163,"name":"J Pop","duration":13},{"id":1095927,"name":"Be My Babe","duration":25},{"id":1266958,"name":"First Asian Boy","duration":20},{"id":854212,"name":"Bad Apple","duration":29},{"id":886166,"name":"I Cant Say I Likept1","duration":7},{"id":1161862,"name":"Shadow Kiss","duration":24},{"id":239727,"name":"W-inds - New World","duration":29},{"id":300892,"name":"Kamen Rider 555","duration":11},{"id":1092016,"name":"Akiko Shikata - Aya","duration":28},{"id":1055482,"name":"rhythmic japdrums","duration":29},{"id":225883,"name":"Tokyo Shounen","duration":21},{"id":251931,"name":"Usavich","duration":22},{"id":232180,"name":"Maximum Impulse","duration":21},{"id":1175316,"name":"Ohayo Chidori","duration":8},{"id":386549,"name":"Japanese Koto","duration":29},{"id":234526,"name":"Japanese Rap Song","duration":22},{"id":371494,"name":"Sky-2-high","duration":28},{"id":1172541,"name":"Yamate Ring Ring","duration":7},{"id":1280391,"name":"The End - Gazette","duration":29},{"id":1107725,"name":"Chocoripeyes","duration":28},{"id":334406,"name":"Yes","duration":30},{"id":1122652,"name":"Taemin - Sayonara","duration":21},{"id":1188879,"name":"Your Seed","duration":29},{"id":267349,"name":"Easy Go Segment","duration":28},{"id":1268217,"name":"Moshi2 Ogenkidesuka","duration":4},{"id":791892,"name":"Real Love Real Life","duration":29},{"id":1129500,"name":"Elles Dansent  Sms","duration":5},{"id":1147463,"name":"Fast music","duration":29},{"id":1308980,"name":"Ayumi-trauma","duration":29},{"id":362813,"name":"Japanese Sms","duration":8},{"id":335712,"name":"Zundoko Bushi","duration":29},{"id":1282905,"name":"Re Re","duration":23},{"id":222042,"name":"Rinku - Uverworld","duration":21},{"id":195048,"name":"Liar Game - Prologue","duration":28},{"id":919096,"name":"Animalsuperstar","duration":28},{"id":1278727,"name":"Wolfs Rain","duration":25},{"id":1093960,"name":"LYCAON","duration":17},{"id":60112,"name":"utada hikaru~ sancuary (passion)","duration":30},{"id":1290193,"name":"Sid-monochrome","duration":27},{"id":1087999,"name":"DBZ Japanese intro","duration":20},{"id":1296402,"name":"Endless Story","duration":29},{"id":1363302,"name":"Tsukutsukuboshi","duration":24},{"id":244517,"name":"Anime Song","duration":21},{"id":137908,"name":"Ne Papa","duration":26},{"id":954294,"name":"Troubled Memories","duration":29},{"id":309937,"name":"Japanese Sms","duration":6},{"id":864786,"name":"K-on Rainy 4","duration":15},{"id":239018,"name":"Mucc - Polaris","duration":28},{"id":966146,"name":"Onee-san Odoru Ze","duration":16},{"id":1102948,"name":"Mermaids Scar Theme","duration":24},{"id":238536,"name":"Buiiki Kaesu","duration":16},{"id":777107,"name":"Tell Me Goodbye","duration":21},{"id":121846,"name":"Shana Chan","duration":5},{"id":1103757,"name":"Feed A","duration":29},{"id":1333562,"name":"Sky Remix","duration":28},{"id":1230675,"name":"Gokusen 2","duration":29},{"id":1187039,"name":"Strange Girl","duration":24},{"id":222813,"name":"Durarara","duration":29},{"id":186050,"name":"Itsudatte Remix 1","duration":29},{"id":1162378,"name":"Episode","duration":20},{"id":157388,"name":"Pandora Hearts- Turn","duration":29},{"id":1175449,"name":"Aimo2","duration":29},{"id":923184,"name":"Epic Violins","duration":25},{"id":73079,"name":"MSG","duration":1},{"id":1255438,"name":"Me And You","duration":26},{"id":1354810,"name":"Ttl 3 Time To Love 3","duration":29},{"id":893072,"name":"Lio Japanese Little","duration":29},{"id":957405,"name":"Crazybunnycoaster","duration":18},{"id":205063,"name":"Without U","duration":21},{"id":101457,"name":"Love Exposure","duration":29},{"id":954297,"name":"Thank You So Much","duration":26},{"id":1273631,"name":"Bakayaro","duration":1},{"id":104232,"name":"Hanamaru","duration":29},{"id":834907,"name":"Kabuki Sms","duration":2},{"id":336898,"name":"Sonic Cd Tidal Goodj","duration":28},{"id":1219885,"name":"Danjo Danjo","duration":12},{"id":912422,"name":"Dragon Ball Gt","duration":29},{"id":1172012,"name":"Aests - FIGHT","duration":17},{"id":1053944,"name":"Sleep my Dear","duration":21},{"id":233758,"name":"War Sounds","duration":1},{"id":844553,"name":"Kiss Japanese Song","duration":29},{"id":73080,"name":"Mail","duration":1},{"id":967749,"name":"Shimasho Shimasho","duration":23},{"id":1244451,"name":"Tabidachi No Uta","duration":21},{"id":787608,"name":"Seiya No Dragon","duration":28},{"id":123053,"name":"W - Remix 1","duration":29},{"id":123050,"name":"W - Remix 2","duration":29},{"id":1157628,"name":"Meta Taro","duration":18},{"id":1055522,"name":"drum flute japan3","duration":27},{"id":1197239,"name":"Sheryl My Star Edit","duration":25},{"id":1333465,"name":"Stand By U Mld Mix","duration":28},{"id":294594,"name":"Shinkiro","duration":29},{"id":380705,"name":"1 Missed Kall","duration":26},{"id":1267493,"name":"Hana Yori Dango","duration":18},{"id":1297703,"name":"Azumanga Daioh - Mah","duration":27},{"id":867673,"name":"K-on Tearfest","duration":27},{"id":1339899,"name":"Best Japanese Frog","duration":13},{"id":1194022,"name":"Dokurochan","duration":27},{"id":194777,"name":"Samorai","duration":29},{"id":885555,"name":"Digi Charat Ondo","duration":22},{"id":189499,"name":"Speranzaria End","duration":29},{"id":364129,"name":"Japanese Sms","duration":8},{"id":886651,"name":"Princess Ayeka","duration":28},{"id":975789,"name":"Venus To Jesus","duration":29},{"id":988242,"name":"Special Days","duration":29},{"id":1215080,"name":"Konichiwa","duration":3},{"id":1230408,"name":"Seishun Amigo","duration":14},{"id":1236757,"name":"Eien - Boa","duration":24},{"id":988238,"name":"Coconut Mall","duration":23},{"id":1144730,"name":"Fruitpochette - Drop","duration":29},{"id":967745,"name":"Oiii Banni","duration":6},{"id":186567,"name":"Sky High","duration":17},{"id":1014541,"name":"One Missed Call Jpn","duration":26},{"id":897776,"name":"K-on Anthem1","duration":20},{"id":1136267,"name":"yuri on ice","duration":29},{"id":875166,"name":"Still Doll","duration":28},{"id":1297709,"name":"Azumanga - Sarabai","duration":27},{"id":364212,"name":"Bakayaro","duration":1},{"id":317668,"name":"Pretty Orgel Tune I","duration":10},{"id":233098,"name":"Konjou Nanshi","duration":16},{"id":1197504,"name":"Blind 2 See","duration":29},{"id":928996,"name":"Tensai","duration":29},{"id":190986,"name":"Don Quiote","duration":29},{"id":1244822,"name":"Thsk - Kotobani","duration":29},{"id":305232,"name":"Love Love Shine","duration":21},{"id":888674,"name":"Pitagora Suichi","duration":27},{"id":61856,"name":"Zeref Theme {japanese}","duration":29},{"id":1324730,"name":"Rip Slyme","duration":20},{"id":1110087,"name":"Naraku II","duration":29},{"id":915558,"name":"Lolita23q - Iz","duration":24},{"id":1156705,"name":"Outer Science","duration":29},{"id":125049,"name":"Sonoyubi Kokuhaku","duration":9},{"id":1162670,"name":"Bass go boom","duration":19},{"id":1333448,"name":"Breakout Remix 1","duration":28},{"id":1283563,"name":"Rolling Bubbles","duration":29},{"id":1143219,"name":"Kyary Commercial 6","duration":14},{"id":1248588,"name":"Shokotan","duration":29},{"id":1252368,"name":"Ima Toumei Ka","duration":13},{"id":383440,"name":"Konnichiwa","duration":8},{"id":1328440,"name":"Gackt - Birdcage","duration":28},{"id":186057,"name":"Longway Remix 1","duration":29},{"id":904320,"name":"Lala No Komori Uta","duration":18},{"id":838785,"name":"Spiritedawaypiano","duration":28},{"id":1200426,"name":"Daimos","duration":20},{"id":232040,"name":"Mizuiro Girlfriend","duration":29},{"id":967372,"name":"Tori No Uta","duration":29},{"id":59700,"name":"Gray Fullbuster Theme {Japanese}","duration":29},{"id":1194583,"name":"Kalafina- Sprinter","duration":25},{"id":1085663,"name":"Acapella","duration":13},{"id":1298398,"name":"One Missed Call","duration":18},{"id":1200668,"name":"God Knows Euro Mix","duration":26},{"id":240176,"name":"Vanishing Hope","duration":29},{"id":1029462,"name":"Cute Bell","duration":1},{"id":83489,"name":"Japanese Tune","duration":29},{"id":1221599,"name":"Eastern Sea Route","duration":19},{"id":981378,"name":"Aqueous Extended","duration":19},{"id":1106670,"name":"The Invisible Wall","duration":27},{"id":1095757,"name":"Initial D - Rain","duration":28},{"id":325137,"name":"Funny Japanese Kid","duration":14},{"id":1199137,"name":"Cute 8-bit Melody","duration":20},{"id":1011192,"name":"Migikata No Chou","duration":13},{"id":336888,"name":"Sonic Cd Quartzbadj1","duration":26},{"id":228658,"name":"Share E World Mix","duration":28},{"id":1241029,"name":"Snow Castle","duration":28},{"id":1271591,"name":"Nana Anime Rosa","duration":28},{"id":1161749,"name":"Sand Planet - Miku","duration":20},{"id":1093833,"name":"Goodbye Miku Hatsune","duration":29},{"id":1169720,"name":"Random Noise","duration":30},{"id":316927,"name":"Maple Gunman","duration":19},{"id":373029,"name":"Japanese Galileo","duration":26},{"id":1296702,"name":"Rin - Mirai-e","duration":23},{"id":1122649,"name":"Taemin - Sayonara","duration":20}]}