{"queryTime":"0 Seconds","totalCount":2379,"pageNumber":4,"perPage":200,"pageCount":200,"data":[{"id":1008032,"name":"Alarm Tone Galaxy S4","duration":27},{"id":1318987,"name":"Ahser Remix 2010","duration":12},{"id":1345870,"name":"New Sound","duration":27},{"id":201076,"name":"Best Techno","duration":29},{"id":880791,"name":"Helecopter","duration":7},{"id":1147820,"name":"Maximum Effort","duration":1},{"id":1317801,"name":"Power Bass Tone 2010","duration":27},{"id":820262,"name":"Loud I","duration":29},{"id":1014837,"name":"Pso Start","duration":5},{"id":1042234,"name":"Happy Ringing","duration":29},{"id":12719,"name":"SeaGulls","duration":4},{"id":1347822,"name":"Vada Raha Sad Loud","duration":21},{"id":924784,"name":"Fahr Nach Hamburg","duration":7},{"id":857394,"name":"Tonic Short Loud","duration":12},{"id":1316683,"name":"Mission Speed","duration":29},{"id":1125544,"name":"Excavate","duration":10},{"id":1205445,"name":"Nice Tone","duration":9},{"id":839861,"name":"Windows Eight 2011","duration":27},{"id":1360566,"name":"Cool Sms Tone","duration":4},{"id":1274331,"name":"Loud","duration":29},{"id":1342882,"name":"Wake Up","duration":3},{"id":1315719,"name":"Bass Siren 2010","duration":27},{"id":843706,"name":"Nokia 2011","duration":28},{"id":831289,"name":"Funny Farts - Louder","duration":28},{"id":964250,"name":"Your Boyfriend Calls","duration":7},{"id":817105,"name":"Ooogah","duration":3},{"id":788233,"name":"Nokia No1 Tone","duration":13},{"id":1303024,"name":"Paisa Paisa Loud","duration":28},{"id":116628,"name":"Popular","duration":18},{"id":780783,"name":"Best Beat 2010 Sms","duration":10},{"id":777178,"name":"Tiga","duration":1},{"id":1083584,"name":"Wavy Year 2015","duration":28},{"id":1013066,"name":"Guitar Loud","duration":25},{"id":297456,"name":"Vertu 6","duration":25},{"id":1134286,"name":"new dance 2017","duration":29},{"id":818874,"name":"Soft Violin 2010","duration":29},{"id":1337247,"name":"Freaky Fast","duration":27},{"id":1228920,"name":"Last Thoughts","duration":29},{"id":1152263,"name":"VirtualRiotLikeZom","duration":30},{"id":784620,"name":"Beera Msg Tone","duration":8},{"id":261725,"name":"Loud Sms","duration":1},{"id":385726,"name":"Bass Reflex","duration":29},{"id":854787,"name":"Roja Flute","duration":28},{"id":121102,"name":"Dreaming Out Loud","duration":29},{"id":830823,"name":"Nokia 2011 Tone","duration":28},{"id":1317813,"name":"Strom Tone","duration":15},{"id":1359816,"name":"Desi Beat Tone","duration":19},{"id":1222387,"name":"Funny","duration":8},{"id":1118550,"name":"Circle of Life","duration":27},{"id":1095461,"name":"shut up mom","duration":2},{"id":1152878,"name":"Trombone","duration":1},{"id":362133,"name":"Xperia Sms","duration":7},{"id":1235242,"name":"Super Sound Effect","duration":29},{"id":1205312,"name":"Formula One","duration":17},{"id":1176151,"name":"Cristals","duration":29},{"id":801573,"name":"No1 Trance","duration":29},{"id":999408,"name":"Alert Clock Sound 13","duration":20},{"id":949698,"name":"Katrina Dialogue","duration":25},{"id":807614,"name":"Nokia Crying 2010","duration":6},{"id":1100252,"name":"Brick Loud Noises","duration":7},{"id":313615,"name":"Police Msg Tone","duration":11},{"id":1361265,"name":"Wind","duration":7},{"id":841195,"name":"Mr Popular","duration":6},{"id":1304602,"name":"Dance Club Mix","duration":27},{"id":1204195,"name":"Murattu Kallai","duration":25},{"id":1350114,"name":"Bass Sms V2","duration":4},{"id":330572,"name":"Loud Sound","duration":12},{"id":820065,"name":"Loudest Ringtone","duration":19},{"id":847942,"name":"Dhinka Chika Loud","duration":27},{"id":1114663,"name":"Phase One","duration":26},{"id":115344,"name":"Dimasa6","duration":11},{"id":836945,"name":"Sms Echo 2011","duration":3},{"id":1329761,"name":"Passion Tone","duration":28},{"id":1036066,"name":"SnoozeAlert GalaxyS4","duration":24},{"id":1100221,"name":"Party Car Horn","duration":4},{"id":1006206,"name":"Dota 2 Ready Loud","duration":6},{"id":1305423,"name":"Aadat Jal Beat Mix","duration":29},{"id":789854,"name":"New Bass Beat Tone","duration":27},{"id":788644,"name":"Perfect Tone 2010","duration":20},{"id":1044441,"name":"LOUD GAMING 2014","duration":29},{"id":991151,"name":"Surprise","duration":9},{"id":1040641,"name":"Alarm ring 3","duration":27},{"id":1325502,"name":"Loop Sms","duration":6},{"id":1199512,"name":"House By Me","duration":26},{"id":999700,"name":"Gimmefuel","duration":11},{"id":935468,"name":"Scream","duration":2},{"id":1096433,"name":"Happy call","duration":28},{"id":1169490,"name":"Short Whistle Notify","duration":2},{"id":819795,"name":"Fastest Ringtone","duration":29},{"id":906832,"name":"Aliens Music","duration":29},{"id":1283577,"name":"Kaminey Dhol Mix","duration":24},{"id":1036098,"name":"--ALARM-SOUND--","duration":17},{"id":1149619,"name":"MarioBros 3-P-Switch","duration":24},{"id":1104932,"name":"SUPER WAVE","duration":11},{"id":161265,"name":"Piano Rolling Girl","duration":22},{"id":1338431,"name":"Bomb Denoter Sms","duration":3},{"id":957856,"name":"Hornpipe From Handel","duration":6},{"id":810516,"name":"Loud Alarm","duration":9},{"id":1226623,"name":"Loud Funky Tune","duration":18},{"id":1179942,"name":"Siren","duration":7},{"id":120892,"name":"Oscillator","duration":5},{"id":1364745,"name":"Bass Effect Sms","duration":4},{"id":1306579,"name":"Fast Beat Sms","duration":5},{"id":154725,"name":"Baby Crying Loud","duration":7},{"id":918638,"name":"Solid Rock","duration":16},{"id":1324071,"name":"Latest Airtel 2010","duration":28},{"id":972790,"name":"Windows 8 Email 2012","duration":1},{"id":104701,"name":"Jet Take Off","duration":15},{"id":314986,"name":"Kawasaki Zrx1200","duration":17},{"id":1319621,"name":"Guitar Clap Tone","duration":26},{"id":777291,"name":"Hip Hop Msg","duration":12},{"id":1348259,"name":"Audi R8 Burnout","duration":19},{"id":231886,"name":"Irritating Sound","duration":23},{"id":800789,"name":"Laser","duration":3},{"id":810785,"name":"New Power Sms 2010","duration":5},{"id":310972,"name":"X6 Original Sms","duration":3},{"id":1170550,"name":"Broken lets dance","duration":30},{"id":5128,"name":"Msg Alert II","duration":2},{"id":1355516,"name":"Nice Beats","duration":28},{"id":932133,"name":"Electronic","duration":28},{"id":1014304,"name":"Canvas Loud Tone","duration":9},{"id":385472,"name":"Irritating Electro","duration":23},{"id":810168,"name":"Full On Remix","duration":29},{"id":1136443,"name":"Yung Bratz","duration":29},{"id":165681,"name":"Fluor Mizu Mizu","duration":15},{"id":1339774,"name":"New Mix Tones","duration":28},{"id":237006,"name":"Skinny Puppy","duration":29},{"id":267848,"name":"Bird Airtel","duration":19},{"id":1317810,"name":"Nokia Love Tone 2010","duration":27},{"id":827145,"name":"Full Alarm","duration":26},{"id":1246578,"name":"Big Siren","duration":17},{"id":1101873,"name":"A Team2","duration":3},{"id":830758,"name":"Night Club 2011","duration":28},{"id":259258,"name":"Mood Kharab","duration":13},{"id":1349916,"name":"Cool Bass Effect 201","duration":27},{"id":286103,"name":"Sadi Gali Punjabi","duration":29},{"id":1025119,"name":"Truck Horn","duration":2},{"id":797343,"name":"Sony Xplode","duration":24},{"id":7737,"name":"Loud Outrageous Laugh","duration":21},{"id":74596,"name":"NOKIA","duration":21},{"id":342521,"name":"Nice And Loud Tamil","duration":20},{"id":363815,"name":"Nokia Loud Sms","duration":7},{"id":1153243,"name":"Mandarin Dance","duration":19},{"id":1179228,"name":"Overdriven","duration":12},{"id":816961,"name":"Loud Ringtone","duration":19},{"id":1193996,"name":"Shootout","duration":22},{"id":1085797,"name":"Minions MMS 2015","duration":9},{"id":305297,"name":"Quester29","duration":29},{"id":840406,"name":"New Bass Effect 2011","duration":28},{"id":262022,"name":"Loud Horn","duration":2},{"id":996818,"name":"Loud Alarm 2013","duration":22},{"id":44498,"name":"COVE-ring","duration":14},{"id":845513,"name":"Shreya","duration":27},{"id":1044085,"name":"Loud Alarm Buzzer 7","duration":27},{"id":796334,"name":"Dj Club Sound","duration":27},{"id":1024587,"name":"Xbox Loud","duration":1},{"id":1212743,"name":"Vivah Theme","duration":22},{"id":154584,"name":"Funkwhite - Louder","duration":29},{"id":918669,"name":"Tezz Theme Awesome","duration":27},{"id":1088213,"name":"The Last Ship","duration":29},{"id":889681,"name":"Sss","duration":26},{"id":302650,"name":"Alrighty Then","duration":4},{"id":1329924,"name":"Super Tone 2010","duration":29},{"id":1112427,"name":"High Techno Tone","duration":23},{"id":843368,"name":"Airtel 3g Loud Mix","duration":27},{"id":1242866,"name":"Cool Sounds","duration":29},{"id":928476,"name":"Ghost Ringing","duration":15},{"id":1273483,"name":"Boom De Yah Da- Loud","duration":29},{"id":1346625,"name":"Romantic Intro","duration":28},{"id":822712,"name":"Submarine Sonar","duration":2},{"id":831108,"name":"Ultimate 2011 Mp3","duration":29},{"id":786533,"name":"Loud","duration":5},{"id":254323,"name":"Annoying Techno","duration":24},{"id":993300,"name":"Alarm-clock 2013","duration":28},{"id":329389,"name":"Bird2","duration":15},{"id":921637,"name":"Memories Of 80s","duration":19},{"id":384210,"name":"9 Mm Gun","duration":7},{"id":284303,"name":"Dabangg - Loud","duration":18},{"id":332039,"name":"Nokia Techno Tone 20","duration":21},{"id":1351711,"name":"Atithi Tum Kab Jaoge","duration":29},{"id":143259,"name":"Metal Gear Codec","duration":3},{"id":783290,"name":"Stylish Guitar","duration":23},{"id":900509,"name":"Show Me D Meaning","duration":28},{"id":106922,"name":"Saxophone","duration":14},{"id":963376,"name":"3d Fire Works Sound","duration":11},{"id":921794,"name":"Maximum Beat","duration":29},{"id":347083,"name":"Alarm Loud","duration":3},{"id":830789,"name":"Loudest 2011 Sms","duration":5},{"id":239574,"name":"Rock The Lmc","duration":14},{"id":1172238,"name":"Submarine Allert","duration":3},{"id":376731,"name":"2011 Rap Sms","duration":8},{"id":161088,"name":"Rock Metal","duration":12},{"id":1151374,"name":"Space Alarm","duration":30},{"id":1176282,"name":"Connection","duration":29},{"id":1039972,"name":"Loud Wake Up Alarm","duration":26},{"id":826609,"name":"Disco Messenger","duration":6},{"id":1306875,"name":"Robotic Bass Tone","duration":10},{"id":1273027,"name":"Street Sweeper","duration":16},{"id":1162008,"name":"Super Mario Coin","duration":2},{"id":899566,"name":"Loud Music","duration":26}]}